Zeeman-effect/green_mag3.77_horiz.csv

Model,MSO2024
Firmware Version,1.52

Point Format,Y
Horizontal Units,S
Horizontal Scale,0.01
Sample Interval,3.2e-05
Filter Frequency,2e+08
Record Length,3125
Gating,0.0% to 100.0%
Probe Attenuation,1
Vertical Units,V
Vertical Offset,0
Vertical Scale,0.2
Label,
TIME,CH1
1.2840e-01,0.179031
1.2843e-01,0.190281
1.2846e-01,0.199156
1.2850e-01,0.188031
1.2853e-01,0.181562
1.2856e-01,0.181469
1.2859e-01,0.17875
1.2862e-01,0.1725
1.2866e-01,0.164812
1.2869e-01,0.162812
1.2872e-01,0.162469
1.2875e-01,0.15475
1.2878e-01,0.150156
1.2882e-01,0.140625
1.2885e-01,0.135969
1.2888e-01,0.123875
1.2891e-01,0.119281
1.2894e-01,0.117469
1.2898e-01,0.113625
1.2901e-01,0.105437
1.2904e-01,0.0985312
1.2907e-01,0.0890625
1.2910e-01,0.0848125
1.2914e-01,0.0809062
1.2917e-01,0.0739062
1.2920e-01,0.0728125
1.2923e-01,0.0747812
1.2926e-01,0.069875
1.2930e-01,0.0676875
1.2933e-01,0.0625312
1.2936e-01,0.060375
1.2939e-01,0.059
1.2942e-01,0.055
1.2946e-01,0.053125
1.2949e-01,0.0539375
1.2952e-01,0.0519062
1.2955e-01,0.0511875
1.2958e-01,0.053125
1.2962e-01,0.0527187
1.2965e-01,0.0530312
1.2968e-01,0.049625
1.2971e-01,0.0480312
1.2974e-01,0.0498437
1.2978e-01,0.047625
1.2981e-01,0.0477187
1.2984e-01,0.0467187
1.2987e-01,0.0465
1.2990e-01,0.046375
1.2994e-01,0.0465625
1.2997e-01,0.0439062
1.3000e-01,0.0445937
1.3003e-01,0.0446875
1.3006e-01,0.0439375
1.3010e-01,0.0460312
1.3013e-01,0.045
1.3016e-01,0.0463437
1.3019e-01,0.045
1.3022e-01,0.0448437
1.3026e-01,0.0426562
1.3029e-01,0.042
1.3032e-01,0.0414375
1.3035e-01,0.0407187
1.3038e-01,0.0406562
1.3042e-01,0.04175
1.3045e-01,0.0412187
1.3048e-01,0.0420625
1.3051e-01,0.0402812
1.3054e-01,0.0427812
1.3058e-01,0.043125
1.3061e-01,0.0444062
1.3064e-01,0.0454687
1.3067e-01,0.0443437
1.3070e-01,0.0437812
1.3074e-01,0.0421562
1.3077e-01,0.0441875
1.3080e-01,0.0437187
1.3083e-01,0.0449687
1.3086e-01,0.0448125
1.3090e-01,0.0459375
1.3093e-01,0.0455
1.3096e-01,0.0436875
1.3099e-01,0.0430625
1.3102e-01,0.039625
1.3106e-01,0.044
1.3109e-01,0.0449687
1.3112e-01,0.047
1.3115e-01,0.044
1.3118e-01,0.04275
1.3122e-01,0.0420625
1.3125e-01,0.0448125
1.3128e-01,0.046625
1.3131e-01,0.046125
1.3134e-01,0.047375
1.3138e-01,0.0472187
1.3141e-01,0.0466875
1.3144e-01,0.0472812
1.3147e-01,0.0464375
1.3150e-01,0.0503437
1.3154e-01,0.0488437
1.3157e-01,0.0474687
1.3160e-01,0.04625
1.3163e-01,0.0454687
1.3166e-01,0.0477187
1.3170e-01,0.0519062
1.3173e-01,0.051375
1.3176e-01,0.0483125
1.3179e-01,0.0458437
1.3182e-01,0.0475625
1.3186e-01,0.049
1.3189e-01,0.0447187
1.3192e-01,0.0439687
1.3195e-01,0.0414687
1.3198e-01,0.0461875
1.3202e-01,0.0455937
1.3205e-01,0.04375
1.3208e-01,0.0431562
1.3211e-01,0.042
1.3214e-01,0.0390937
1.3218e-01,0.038875
1.3221e-01,0.039
1.3224e-01,0.036875
1.3227e-01,0.037625
1.3230e-01,0.0396875
1.3234e-01,0.0379375
1.3237e-01,0.0392812
1.3240e-01,0.0389687
1.3243e-01,0.037125
1.3246e-01,0.0365
1.3250e-01,0.0353437
1.3253e-01,0.03525
1.3256e-01,0.0342187
1.3259e-01,0.0353125
1.3262e-01,0.0384062
1.3266e-01,0.03575
1.3269e-01,0.0371562
1.3272e-01,0.0354687
1.3275e-01,0.038125
1.3278e-01,0.0379375
1.3282e-01,0.0356562
1.3285e-01,0.0371562
1.3288e-01,0.03925
1.3291e-01,0.0389375
1.3294e-01,0.0401875
1.3298e-01,0.0407187
1.3301e-01,0.0390937
1.3304e-01,0.0387187
1.3307e-01,0.0366562
1.3310e-01,0.0373437
1.3314e-01,0.0381875
1.3317e-01,0.0404062
1.3320e-01,0.0435937
1.3323e-01,0.0419687
1.3326e-01,0.0450312
1.3330e-01,0.0430625
1.3333e-01,0.0415937
1.3336e-01,0.0405937
1.3339e-01,0.0405312
1.3342e-01,0.0410312
1.3346e-01,0.0388437
1.3349e-01,0.0408125
1.3352e-01,0.0408437
1.3355e-01,0.0410312
1.3358e-01,0.0400312
1.3362e-01,0.0400937
1.3365e-01,0.043125
1.3368e-01,0.04525
1.3371e-01,0.0455
1.3374e-01,0.0449062
1.3378e-01,0.0491562
1.3381e-01,0.0452187
1.3384e-01,0.0479375
1.3387e-01,0.046875
1.3390e-01,0.0480312
1.3394e-01,0.0474687
1.3397e-01,0.0464687
1.3400e-01,0.0465937
1.3403e-01,0.04575
1.3406e-01,0.0440312
1.3410e-01,0.0433437
1.3413e-01,0.0454687
1.3416e-01,0.0464687
1.3419e-01,0.0472187
1.3422e-01,0.04625
1.3426e-01,0.0438125
1.3429e-01,0.0415
1.3432e-01,0.0434062
1.3435e-01,0.0406875
1.3438e-01,0.0455
1.3442e-01,0.041875
1.3445e-01,0.038875
1.3448e-01,0.0391875
1.3451e-01,0.0386562
1.3454e-01,0.0367812
1.3458e-01,0.04025
1.3461e-01,0.0394687
1.3464e-01,0.0394375
1.3467e-01,0.039875
1.3470e-01,0.03825
1.3474e-01,0.0395
1.3477e-01,0.0391875
1.3480e-01,0.03625
1.3483e-01,0.0358437
1.3486e-01,0.0366875
1.3490e-01,0.0405
1.3493e-01,0.0424062
1.3496e-01,0.0414687
1.3499e-01,0.0425
1.3502e-01,0.04175
1.3506e-01,0.0411562
1.3509e-01,0.03775
1.3512e-01,0.0399687
1.3515e-01,0.0378437
1.3518e-01,0.0375312
1.3522e-01,0.0388125
1.3525e-01,0.0414687
1.3528e-01,0.0422187
1.3531e-01,0.0405937
1.3534e-01,0.04025
1.3538e-01,0.03925
1.3541e-01,0.04025
1.3544e-01,0.041375
1.3547e-01,0.0415625
1.3550e-01,0.0430312
1.3554e-01,0.0403125
1.3557e-01,0.0420937
1.3560e-01,0.0434375
1.3563e-01,0.042
1.3566e-01,0.0427187
1.3570e-01,0.041125
1.3573e-01,0.0394062
1.3576e-01,0.040625
1.3579e-01,0.0386875
1.3582e-01,0.0394375
1.3586e-01,0.0389687
1.3589e-01,0.0399062
1.3592e-01,0.0408437
1.3595e-01,0.039125
1.3598e-01,0.0394687
1.3602e-01,0.0384687
1.3605e-01,0.0378437
1.3608e-01,0.0403437
1.3611e-01,0.0375625
1.3614e-01,0.0372812
1.3618e-01,0.0380937
1.3621e-01,0.037375
1.3624e-01,0.0365312
1.3627e-01,0.03775
1.3630e-01,0.0413125
1.3634e-01,0.0389375
1.3637e-01,0.0394687
1.3640e-01,0.0414375
1.3643e-01,0.04175
1.3646e-01,0.0414687
1.3650e-01,0.0394687
1.3653e-01,0.0364687
1.3656e-01,0.0372812
1.3659e-01,0.0352187
1.3662e-01,0.03675
1.3666e-01,0.038375
1.3669e-01,0.0378125
1.3672e-01,0.03775
1.3675e-01,0.03725
1.3678e-01,0.03725
1.3682e-01,0.0368125
1.3685e-01,0.038
1.3688e-01,0.0368125
1.3691e-01,0.040375
1.3694e-01,0.0414062
1.3698e-01,0.0424375
1.3701e-01,0.0413125
1.3704e-01,0.0410312
1.3707e-01,0.0418437
1.3710e-01,0.0395937
1.3714e-01,0.038625
1.3717e-01,0.037875
1.3720e-01,0.0380312
1.3723e-01,0.038375
1.3726e-01,0.0373125
1.3730e-01,0.042
1.3733e-01,0.0425312
1.3736e-01,0.0437812
1.3739e-01,0.0429062
1.3742e-01,0.0427187
1.3746e-01,0.0415937
1.3749e-01,0.041375
1.3752e-01,0.0423125
1.3755e-01,0.0435
1.3758e-01,0.0435937
1.3762e-01,0.045875
1.3765e-01,0.0431875
1.3768e-01,0.0432812
1.3771e-01,0.0461562
1.3774e-01,0.0464687
1.3778e-01,0.0453125
1.3781e-01,0.045
1.3784e-01,0.0450312
1.3787e-01,0.0455625
1.3790e-01,0.0464062
1.3794e-01,0.0458125
1.3797e-01,0.0467187
1.3800e-01,0.05
1.3803e-01,0.0529062
1.3806e-01,0.0525
1.3810e-01,0.050625
1.3813e-01,0.0508437
1.3816e-01,0.04725
1.3819e-01,0.0475937
1.3822e-01,0.0514687
1.3826e-01,0.053375
1.3829e-01,0.0519375
1.3832e-01,0.052625
1.3835e-01,0.052875
1.3838e-01,0.0504062
1.3842e-01,0.0505937
1.3845e-01,0.0505312
1.3848e-01,0.0527187
1.3851e-01,0.0498437
1.3854e-01,0.0485625
1.3858e-01,0.0495
1.3861e-01,0.051
1.3864e-01,0.0503437
1.3867e-01,0.0503125
1.3870e-01,0.0484687
1.3874e-01,0.0529062
1.3877e-01,0.0568125
1.3880e-01,0.0524375
1.3883e-01,0.0509375
1.3886e-01,0.0528437
1.3890e-01,0.0530312
1.3893e-01,0.0544375
1.3896e-01,0.0514062
1.3899e-01,0.0584687
1.3902e-01,0.0614062
1.3906e-01,0.0629687
1.3909e-01,0.059
1.3912e-01,0.0604375
1.3915e-01,0.0610625
1.3918e-01,0.0613125
1.3922e-01,0.0615625
1.3925e-01,0.063125
1.3928e-01,0.063125
1.3931e-01,0.0615312
1.3934e-01,0.0615937
1.3938e-01,0.0601562
1.3941e-01,0.0584375
1.3944e-01,0.0606875
1.3947e-01,0.0627187
1.3950e-01,0.068875
1.3954e-01,0.0701562
1.3957e-01,0.0704687
1.3960e-01,0.0731875
1.3963e-01,0.0750312
1.3966e-01,0.0781562
1.3970e-01,0.0778125
1.3973e-01,0.080625
1.3976e-01,0.08125
1.3979e-01,0.0871562
1.3982e-01,0.0928437
1.3986e-01,0.0915
1.3989e-01,0.0929062
1.3992e-01,0.101187
1.3995e-01,0.105687
1.3998e-01,0.110781
1.4002e-01,0.111531
1.4005e-01,0.114437
1.4008e-01,0.124375
1.4011e-01,0.127969
1.4014e-01,0.129937
1.4018e-01,0.133969
1.4021e-01,0.140594
1.4024e-01,0.162062
1.4027e-01,0.164625
1.4030e-01,0.176906
1.4034e-01,0.186906
1.4037e-01,0.201375
1.4040e-01,0.205281
1.4043e-01,0.214125
1.4046e-01,0.223375
1.4050e-01,0.236875
1.4053e-01,0.239937
1.4056e-01,0.244562
1.4059e-01,0.252937
1.4062e-01,0.27125
1.4066e-01,0.284187
1.4069e-01,0.283906
1.4072e-01,0.285875
1.4075e-01,0.286562
1.4078e-01,0.275625
1.4082e-01,0.266437
1.4085e-01,0.267656
1.4088e-01,0.265406
1.4091e-01,0.256906
1.4094e-01,0.24175
1.4098e-01,0.227125
1.4101e-01,0.22075
1.4104e-01,0.208375
1.4107e-01,0.202812
1.4110e-01,0.189312
1.4114e-01,0.187125
1.4117e-01,0.185625
1.4120e-01,0.189719
1.4123e-01,0.188156
1.4126e-01,0.192437
1.4130e-01,0.191312
1.4133e-01,0.204969
1.4136e-01,0.214437
1.4139e-01,0.221219
1.4142e-01,0.231187
1.4146e-01,0.230625
1.4149e-01,0.227437
1.4152e-01,0.243656
1.4155e-01,0.248562
1.4158e-01,0.250969
1.4162e-01,0.258375
1.4165e-01,0.266781
1.4168e-01,0.2775
1.4171e-01,0.293719
1.4174e-01,0.298781
1.4178e-01,0.303656
1.4181e-01,0.303937
1.4184e-01,0.322625
1.4187e-01,0.356125
1.4190e-01,0.375344
1.4194e-01,0.410344
1.4197e-01,0.446125
1.4200e-01,0.461312
1.4203e-01,0.503375
1.4206e-01,0.532375
1.4210e-01,0.568219
1.4213e-01,0.605344
1.4216e-01,0.652594
1.4219e-01,0.705687
1.4222e-01,0.756625
1.4226e-01,0.80375
1.4229e-01,0.844344
1.4232e-01,0.884625
1.4235e-01,0.927469
1.4238e-01,0.966625
1.4242e-01,0.999812
1.4245e-01,1.02019
1.4248e-01,1.03166
1.4251e-01,1.04862
1.4254e-01,1.04456
1.4258e-01,1.05491
1.4261e-01,1.06475
1.4264e-01,1.04666
1.4267e-01,1.02287
1.4270e-01,0.995219
1.4274e-01,0.943031
1.4277e-01,0.89725
1.4280e-01,0.853531
1.4283e-01,0.797937
1.4286e-01,0.760937
1.4290e-01,0.723937
1.4293e-01,0.677469
1.4296e-01,0.632875
1.4299e-01,0.572156
1.4302e-01,0.543781
1.4306e-01,0.5105
1.4309e-01,0.496187
1.4312e-01,0.47675
1.4315e-01,0.479281
1.4318e-01,0.445437
1.4322e-01,0.429906
1.4325e-01,0.434281
1.4328e-01,0.423687
1.4331e-01,0.415187
1.4334e-01,0.415187
1.4338e-01,0.410469
1.4341e-01,0.415937
1.4344e-01,0.420844
1.4347e-01,0.421562
1.4350e-01,0.420125
1.4354e-01,0.4245
1.4357e-01,0.428437
1.4360e-01,0.436906
1.4363e-01,0.45725
1.4366e-01,0.45925
1.4370e-01,0.463406
1.4373e-01,0.47375
1.4376e-01,0.4875
1.4379e-01,0.515375
1.4382e-01,0.552375
1.4386e-01,0.554781
1.4389e-01,0.573344
1.4392e-01,0.583
1.4395e-01,0.596
1.4398e-01,0.622969
1.4402e-01,0.639969
1.4405e-01,0.666531
1.4408e-01,0.674125
1.4411e-01,0.731
1.4414e-01,0.736469
1.4418e-01,0.770937
1.4421e-01,0.822187
1.4424e-01,0.835031
1.4427e-01,0.873812
1.4430e-01,0.919562
1.4434e-01,0.969937
1.4437e-01,0.995156
1.4440e-01,1.04878
1.4443e-01,1.08841
1.4446e-01,1.14728
1.4450e-01,1.1995
1.4453e-01,1.22775
1.4456e-01,1.27669
1.4459e-01,1.31812
1.4462e-01,1.35787
1.4466e-01,1.37528
1.4469e-01,1.37259
1.4472e-01,1.379
1.4475e-01,1.40322
1.4478e-01,1.39509
1.4482e-01,1.37781
1.4485e-01,1.36322
1.4488e-01,1.35584
1.4491e-01,1.31666
1.4494e-01,1.26859
1.4498e-01,1.22925
1.4501e-01,1.17331
1.4504e-01,1.10047
1.4507e-01,1.02209
1.4510e-01,0.9365
1.4514e-01,0.855531
1.4517e-01,0.77325
1.4520e-01,0.70625
1.4523e-01,0.633906
1.4526e-01,0.577094
1.4530e-01,0.524375
1.4533e-01,0.476281
1.4536e-01,0.444031
1.4539e-01,0.418594
1.4542e-01,0.391125
1.4546e-01,0.370312
1.4549e-01,0.34825
1.4552e-01,0.341625
1.4555e-01,0.33875
1.4558e-01,0.342437
1.4562e-01,0.347219
1.4565e-01,0.347
1.4568e-01,0.356187
1.4571e-01,0.372875
1.4574e-01,0.378312
1.4578e-01,0.386187
1.4581e-01,0.384812
1.4584e-01,0.377344
1.4587e-01,0.368344
1.4590e-01,0.371687
1.4594e-01,0.366281
1.4597e-01,0.361687
1.4600e-01,0.360594
1.4603e-01,0.35175
1.4606e-01,0.350187
1.4610e-01,0.342625
1.4613e-01,0.33525
1.4616e-01,0.339812
1.4619e-01,0.344156
1.4622e-01,0.346875
1.4626e-01,0.351875
1.4629e-01,0.36925
1.4632e-01,0.389062
1.4635e-01,0.410156
1.4638e-01,0.441344
1.4642e-01,0.476594
1.4645e-01,0.505625
1.4648e-01,0.536062
1.4651e-01,0.566469
1.4654e-01,0.60225
1.4658e-01,0.653937
1.4661e-01,0.683375
1.4664e-01,0.728281
1.4667e-01,0.792937
1.4670e-01,0.839406
1.4674e-01,0.857437
1.4677e-01,0.904437
1.4680e-01,0.927906
1.4683e-01,0.958187
1.4686e-01,0.987187
1.4690e-01,0.999187
1.4693e-01,1.00534
1.4696e-01,1.01287
1.4699e-01,0.997969
1.4702e-01,0.976875
1.4706e-01,0.939844
1.4709e-01,0.896406
1.4712e-01,0.845594
1.4715e-01,0.825062
1.4718e-01,0.768219
1.4722e-01,0.714
1.4725e-01,0.667125
1.4728e-01,0.614094
1.4731e-01,0.550781
1.4734e-01,0.500125
1.4738e-01,0.451812
1.4741e-01,0.408312
1.4744e-01,0.37925
1.4747e-01,0.344219
1.4750e-01,0.308625
1.4754e-01,0.28625
1.4757e-01,0.257156
1.4760e-01,0.242344
1.4763e-01,0.224062
1.4766e-01,0.208187
1.4770e-01,0.195594
1.4773e-01,0.187562
1.4776e-01,0.182
1.4779e-01,0.172187
1.4782e-01,0.16075
1.4786e-01,0.151062
1.4789e-01,0.150156
1.4792e-01,0.14775
1.4795e-01,0.142312
1.4798e-01,0.142531
1.4802e-01,0.136875
1.4805e-01,0.13025
1.4808e-01,0.138094
1.4811e-01,0.134219
1.4814e-01,0.126969
1.4818e-01,0.126625
1.4821e-01,0.133219
1.4824e-01,0.127656
1.4827e-01,0.127625
1.4830e-01,0.130594
1.4834e-01,0.133969
1.4837e-01,0.137094
1.4840e-01,0.144281
1.4843e-01,0.155187
1.4846e-01,0.154625
1.4850e-01,0.161937
1.4853e-01,0.162219
1.4856e-01,0.166094
1.4859e-01,0.163406
1.4862e-01,0.172031
1.4866e-01,0.178437
1.4869e-01,0.179219
1.4872e-01,0.180562
1.4875e-01,0.193594
1.4878e-01,0.190625
1.4882e-01,0.186969
1.4885e-01,0.189594
1.4888e-01,0.189062
1.4891e-01,0.187125
1.4894e-01,0.183219
1.4898e-01,0.176594
1.4901e-01,0.176
1.4904e-01,0.166594
1.4907e-01,0.156937
1.4910e-01,0.144312
1.4914e-01,0.137531
1.4917e-01,0.128156
1.4920e-01,0.112
1.4923e-01,0.103187
1.4926e-01,0.0890937
1.4930e-01,0.0870937
1.4933e-01,0.080375
1.4936e-01,0.0745312
1.4939e-01,0.0677812
1.4942e-01,0.06475
1.4946e-01,0.0664062
1.4949e-01,0.066375
1.4952e-01,0.0580312
1.4955e-01,0.0554062
1.4958e-01,0.053375
1.4962e-01,0.054125
1.4965e-01,0.0520312
1.4968e-01,0.0506562
1.4971e-01,0.049125
1.4974e-01,0.04725
1.4978e-01,0.0476562
1.4981e-01,0.0471562
1.4984e-01,0.0456562
1.4987e-01,0.0432812
1.4990e-01,0.0449687
1.4994e-01,0.0445312
1.4997e-01,0.0447187
1.5000e-01,0.0445937
1.5003e-01,0.0443125
1.5006e-01,0.0450625
1.5010e-01,0.0420937
1.5013e-01,0.0449375
1.5016e-01,0.0424062
1.5019e-01,0.0420625
1.5022e-01,0.0442812
1.5026e-01,0.0468125
1.5029e-01,0.046625
1.5032e-01,0.0460312
1.5035e-01,0.045125
1.5038e-01,0.042375
1.5042e-01,0.04425
1.5045e-01,0.0442812
1.5048e-01,0.0458437
1.5051e-01,0.04475
1.5054e-01,0.0436875
1.5058e-01,0.0455625
1.5061e-01,0.0450312
1.5064e-01,0.0456875
1.5067e-01,0.0438125
1.5070e-01,0.0449375
1.5074e-01,0.0436562
1.5077e-01,0.0439062
1.5080e-01,0.043125
1.5083e-01,0.0428125
1.5086e-01,0.044125
1.5090e-01,0.0454375
1.5093e-01,0.0441875
1.5096e-01,0.0465
1.5099e-01,0.0461875
1.5102e-01,0.0509062
1.5106e-01,0.0497812
1.5109e-01,0.048625
1.5112e-01,0.047625
1.5115e-01,0.0464687
1.5118e-01,0.0516875
1.5122e-01,0.0521875
1.5125e-01,0.0525937
1.5128e-01,0.0542812
1.5131e-01,0.0503125
1.5134e-01,0.0462812
1.5138e-01,0.0473125
1.5141e-01,0.045375
1.5144e-01,0.0449062
1.5147e-01,0.0432812
1.5150e-01,0.0419687
1.5154e-01,0.0432187
1.5157e-01,0.04125
1.5160e-01,0.0394375
1.5163e-01,0.0404687
1.5166e-01,0.042375
1.5170e-01,0.0411562
1.5173e-01,0.0415937
1.5176e-01,0.041
1.5179e-01,0.0384375
1.5182e-01,0.0389062
1.5186e-01,0.0386562
1.5189e-01,0.0374687
1.5192e-01,0.0360312
1.5195e-01,0.0360625
1.5198e-01,0.0358437
1.5202e-01,0.03975
1.5205e-01,0.0375
1.5208e-01,0.038125
1.5211e-01,0.0395625
1.5214e-01,0.0383125
1.5218e-01,0.0379687
1.5221e-01,0.0394062
1.5224e-01,0.0403437
1.5227e-01,0.0404687
1.5230e-01,0.0378125
1.5234e-01,0.0407812
1.5237e-01,0.0430937
1.5240e-01,0.0425937
1.5243e-01,0.0408125
1.5246e-01,0.039
1.5250e-01,0.03875
1.5253e-01,0.04025
1.5256e-01,0.0409375
1.5259e-01,0.039875
1.5262e-01,0.03975
1.5266e-01,0.0399375
1.5269e-01,0.0405
1.5272e-01,0.0385312
1.5275e-01,0.0400312
1.5278e-01,0.0404375
1.5282e-01,0.0403437
1.5285e-01,0.0408437
1.5288e-01,0.0394062
1.5291e-01,0.0384062
1.5294e-01,0.04125
1.5298e-01,0.0425312
1.5301e-01,0.04275
1.5304e-01,0.0428437
1.5307e-01,0.04575
1.5310e-01,0.0464375
1.5314e-01,0.04425
1.5317e-01,0.0416875
1.5320e-01,0.0426562
1.5323e-01,0.04225
1.5326e-01,0.0401875
1.5330e-01,0.0422812
1.5333e-01,0.0402812
1.5336e-01,0.0445312
1.5339e-01,0.04525
1.5342e-01,0.0466562
1.5346e-01,0.0459687
1.5349e-01,0.0475
1.5352e-01,0.0493125
1.5355e-01,0.0477812
1.5358e-01,0.0462187
1.5362e-01,0.0423437
1.5365e-01,0.0420625
1.5368e-01,0.0410937
1.5371e-01,0.0385937
1.5374e-01,0.0410937
1.5378e-01,0.0428125
1.5381e-01,0.041375
1.5384e-01,0.037125
1.5387e-01,0.0372812
1.5390e-01,0.0380937
1.5394e-01,0.0403125
1.5397e-01,0.0382187
1.5400e-01,0.0360625
1.5403e-01,0.0380625
1.5406e-01,0.0385
1.5410e-01,0.034625
1.5413e-01,0.0395312
1.5416e-01,0.0391875
1.5419e-01,0.0379375
1.5422e-01,0.0378125
1.5426e-01,0.0378437
1.5429e-01,0.0396875
1.5432e-01,0.0404687
1.5435e-01,0.0383437
1.5438e-01,0.0407187
1.5442e-01,0.04175
1.5445e-01,0.0409687
1.5448e-01,0.0400625
1.5451e-01,0.0385625
1.5454e-01,0.0383437
1.5458e-01,0.0401875
1.5461e-01,0.043125
1.5464e-01,0.0411562
1.5467e-01,0.0407812
1.5470e-01,0.0412812
1.5474e-01,0.04175
1.5477e-01,0.0399062
1.5480e-01,0.0425937
1.5483e-01,0.0415625
1.5486e-01,0.0407812
1.5490e-01,0.0409062
1.5493e-01,0.0386875
1.5496e-01,0.0407187
1.5499e-01,0.0414687
1.5502e-01,0.0424375
1.5506e-01,0.0388437
1.5509e-01,0.044875
1.5512e-01,0.0437187
1.5515e-01,0.03925
1.5518e-01,0.0367812
1.5522e-01,0.036125
1.5525e-01,0.037375
1.5528e-01,0.038375
1.5531e-01,0.0422812
1.5534e-01,0.0428125
1.5538e-01,0.0417187
1.5541e-01,0.0400625
1.5544e-01,0.0400937
1.5547e-01,0.0370625
1.5550e-01,0.0375625
1.5554e-01,0.0406562
1.5557e-01,0.0389375
1.5560e-01,0.0406875
1.5563e-01,0.0389062
1.5566e-01,0.0374062
1.5570e-01,0.0390937
1.5573e-01,0.0390937
1.5576e-01,0.0384687
1.5579e-01,0.0385
1.5582e-01,0.0386562
1.5586e-01,0.0366562
1.5589e-01,0.03775
1.5592e-01,0.039375
1.5595e-01,0.0370937
1.5598e-01,0.040375
1.5602e-01,0.0382812
1.5605e-01,0.0401562
1.5608e-01,0.0398125
1.5611e-01,0.038125
1.5614e-01,0.0364375
1.5618e-01,0.0409062
1.5621e-01,0.0408437
1.5624e-01,0.0418437
1.5627e-01,0.0421875
1.5630e-01,0.0433437
1.5634e-01,0.0444375
1.5637e-01,0.0477812
1.5640e-01,0.0424062
1.5643e-01,0.0424687
1.5646e-01,0.0430937
1.5650e-01,0.0445625
1.5653e-01,0.0444687
1.5656e-01,0.0447187
1.5659e-01,0.0425
1.5662e-01,0.0427187
1.5666e-01,0.0461875
1.5669e-01,0.0474062
1.5672e-01,0.04825
1.5675e-01,0.0494687
1.5678e-01,0.0475625
1.5682e-01,0.0490937
1.5685e-01,0.046
1.5688e-01,0.0472187
1.5691e-01,0.0484375
1.5694e-01,0.05
1.5698e-01,0.048375
1.5701e-01,0.0473125
1.5704e-01,0.0492187
1.5707e-01,0.0458125
1.5710e-01,0.046375
1.5714e-01,0.048
1.5717e-01,0.0465
1.5720e-01,0.0456562
1.5723e-01,0.0446562
1.5726e-01,0.0469687
1.5730e-01,0.0452812
1.5733e-01,0.0477187
1.5736e-01,0.0500937
1.5739e-01,0.0510625
1.5742e-01,0.0496562
1.5746e-01,0.0484687
1.5749e-01,0.046375
1.5752e-01,0.046875
1.5755e-01,0.0494687
1.5758e-01,0.0509687
1.5762e-01,0.0522812
1.5765e-01,0.053125
1.5768e-01,0.053625
1.5771e-01,0.0559062
1.5774e-01,0.052
1.5778e-01,0.0524375
1.5781e-01,0.0533125
1.5784e-01,0.0548125
1.5787e-01,0.061
1.5790e-01,0.0601875
1.5794e-01,0.05975
1.5797e-01,0.0551562
1.5800e-01,0.0553125
1.5803e-01,0.0582187
1.5806e-01,0.0606562
1.5810e-01,0.0584687
1.5813e-01,0.0554062
1.5816e-01,0.060125
1.5819e-01,0.057875
1.5822e-01,0.0573437
1.5826e-01,0.0619062
1.5829e-01,0.0612812
1.5832e-01,0.0709375
1.5835e-01,0.0716875
1.5838e-01,0.0715937
1.5842e-01,0.0756875
1.5845e-01,0.079
1.5848e-01,0.0833437
1.5851e-01,0.082875
1.5854e-01,0.0855312
1.5858e-01,0.0904687
1.5861e-01,0.0959687
1.5864e-01,0.0958125
1.5867e-01,0.106812
1.5870e-01,0.109312
1.5874e-01,0.113187
1.5877e-01,0.124344
1.5880e-01,0.132875
1.5883e-01,0.145156
1.5886e-01,0.15925
1.5890e-01,0.158031
1.5893e-01,0.161031
1.5896e-01,0.166625
1.5899e-01,0.183125
1.5902e-01,0.19575
1.5906e-01,0.215281
1.5909e-01,0.222156
1.5912e-01,0.228312
1.5915e-01,0.232687
1.5918e-01,0.251
1.5922e-01,0.266344
1.5925e-01,0.27325
1.5928e-01,0.288344
1.5931e-01,0.290031
1.5934e-01,0.287625
1.5938e-01,0.278812
1.5941e-01,0.261156
1.5944e-01,0.259625
1.5947e-01,0.241125
1.5950e-01,0.220187
1.5954e-01,0.212969
1.5957e-01,0.20925
1.5960e-01,0.201594
