Zeeman-effect/green_mag0_noP.csv

Model,MSO2024
Firmware Version,1.52

Point Format,Y
Horizontal Units,S
Horizontal Scale,0.01
Sample Interval,3.2e-05
Filter Frequency,2e+08
Record Length,3125
Gating,0.0% to 100.0%
Probe Attenuation,1
Vertical Units,V
Vertical Offset,0
Vertical Scale,0.1
Label,
TIME,CH1
1.2840e-01,0.00942189
1.2843e-01,0.00962501
1.2846e-01,0.00884376
1.2850e-01,0.00876564
1.2853e-01,0.00926564
1.2856e-01,0.00904689
1.2859e-01,0.00953126
1.2862e-01,0.00915626
1.2866e-01,0.00862501
1.2869e-01,0.00865626
1.2872e-01,0.00810939
1.2875e-01,0.00826564
1.2878e-01,0.00843751
1.2882e-01,0.00867189
1.2885e-01,0.00870314
1.2888e-01,0.00843751
1.2891e-01,0.00767189
1.2894e-01,0.00837501
1.2898e-01,0.00882814
1.2901e-01,0.00837501
1.2904e-01,0.00798439
1.2907e-01,0.00814064
1.2910e-01,0.00764064
1.2914e-01,0.00815626
1.2917e-01,0.00859376
1.2920e-01,0.00832814
1.2923e-01,0.00862501
1.2926e-01,0.00859376
1.2930e-01,0.00854689
1.2933e-01,0.00854689
1.2936e-01,0.00815626
1.2939e-01,0.00784376
1.2942e-01,0.00812501
1.2946e-01,0.00718751
1.2949e-01,0.00778126
1.2952e-01,0.00814064
1.2955e-01,0.00881251
1.2958e-01,0.00832814
1.2962e-01,0.00737501
1.2965e-01,0.00803126
1.2968e-01,0.00789064
1.2971e-01,0.00760939
1.2974e-01,0.00768751
1.2978e-01,0.00809376
1.2981e-01,0.00845314
1.2984e-01,0.00943751
1.2987e-01,0.00878126
1.2990e-01,0.00820314
1.2994e-01,0.00784376
1.2997e-01,0.00742189
1.3000e-01,0.00721876
1.3003e-01,0.00692189
1.3006e-01,0.00771876
1.3010e-01,0.00678126
1.3013e-01,0.00729689
1.3016e-01,0.00703126
1.3019e-01,0.00762501
1.3022e-01,0.00735939
1.3026e-01,0.00720314
1.3029e-01,0.00765626
1.3032e-01,0.00725001
1.3035e-01,0.00773439
1.3038e-01,0.00796876
1.3042e-01,0.00762501
1.3045e-01,0.00742189
1.3048e-01,0.00709376
1.3051e-01,0.00706251
1.3054e-01,0.00689064
1.3058e-01,0.00725001
1.3061e-01,0.00729689
1.3064e-01,0.00756251
1.3067e-01,0.00770314
1.3070e-01,0.00737501
1.3074e-01,0.00704689
1.3077e-01,0.00725001
1.3080e-01,0.00662501
1.3083e-01,0.00750001
1.3086e-01,0.00835939
1.3090e-01,0.00817189
1.3093e-01,0.00787501
1.3096e-01,0.00804689
1.3099e-01,0.00795314
1.3102e-01,0.00793751
1.3106e-01,0.00712501
1.3109e-01,0.00690626
1.3112e-01,0.00660939
1.3115e-01,0.00757814
1.3118e-01,0.00737501
1.3122e-01,0.00721876
1.3125e-01,0.00737501
1.3128e-01,0.00817189
1.3131e-01,0.00700001
1.3134e-01,0.00754689
1.3138e-01,0.00776564
1.3141e-01,0.00742189
1.3144e-01,0.00728126
1.3147e-01,0.00779689
1.3150e-01,0.00771876
1.3154e-01,0.00690626
1.3157e-01,0.00742189
1.3160e-01,0.00712501
1.3163e-01,0.00754689
1.3166e-01,0.00753126
1.3170e-01,0.00721876
1.3173e-01,0.00757814
1.3176e-01,0.00804689
1.3179e-01,0.00734376
1.3182e-01,0.00742189
1.3186e-01,0.00778126
1.3189e-01,0.00787501
1.3192e-01,0.00767189
1.3195e-01,0.00734376
1.3198e-01,0.00712501
1.3202e-01,0.00696876
1.3205e-01,0.00732814
1.3208e-01,0.00754689
1.3211e-01,0.00771876
1.3214e-01,0.00795314
1.3218e-01,0.00778126
1.3221e-01,0.00725001
1.3224e-01,0.00750001
1.3227e-01,0.00732814
1.3230e-01,0.00746876
1.3234e-01,0.00826564
1.3237e-01,0.00756251
1.3240e-01,0.00737501
1.3243e-01,0.00723439
1.3246e-01,0.00714064
1.3250e-01,0.00717189
1.3253e-01,0.00718751
1.3256e-01,0.00703126
1.3259e-01,0.00667189
1.3262e-01,0.00640626
1.3266e-01,0.00731251
1.3269e-01,0.00751564
1.3272e-01,0.00735939
1.3275e-01,0.00800001
1.3278e-01,0.00770314
1.3282e-01,0.00775001
1.3285e-01,0.00745314
1.3288e-01,0.00737501
1.3291e-01,0.00756251
1.3294e-01,0.00707814
1.3298e-01,0.00732814
1.3301e-01,0.00756251
1.3304e-01,0.00814064
1.3307e-01,0.00820314
1.3310e-01,0.00784376
1.3314e-01,0.00778126
1.3317e-01,0.00754689
1.3320e-01,0.00796876
1.3323e-01,0.00734376
1.3326e-01,0.00726564
1.3330e-01,0.00685939
1.3333e-01,0.00729689
1.3336e-01,0.00715626
1.3339e-01,0.00684376
1.3342e-01,0.00682814
1.3346e-01,0.00715626
1.3349e-01,0.00703126
1.3352e-01,0.00770314
1.3355e-01,0.00771876
1.3358e-01,0.00734376
1.3362e-01,0.00723439
1.3365e-01,0.00753126
1.3368e-01,0.00764064
1.3371e-01,0.00795314
1.3374e-01,0.00765626
1.3378e-01,0.00748439
1.3381e-01,0.00781251
1.3384e-01,0.00789064
1.3387e-01,0.00871876
1.3390e-01,0.00832814
1.3394e-01,0.00837501
1.3397e-01,0.00756251
1.3400e-01,0.00814064
1.3403e-01,0.00795314
1.3406e-01,0.00789064
1.3410e-01,0.00710939
1.3413e-01,0.00700001
1.3416e-01,0.00712501
1.3419e-01,0.00664064
1.3422e-01,0.00828126
1.3426e-01,0.00831251
1.3429e-01,0.00817189
1.3432e-01,0.00787501
1.3435e-01,0.00728126
1.3438e-01,0.00815626
1.3442e-01,0.00792189
1.3445e-01,0.00784376
1.3448e-01,0.00746876
1.3451e-01,0.00684376
1.3454e-01,0.00698439
1.3458e-01,0.00657814
1.3461e-01,0.00746876
1.3464e-01,0.00820314
1.3467e-01,0.00812501
1.3470e-01,0.00790626
1.3474e-01,0.00817189
1.3477e-01,0.00750001
1.3480e-01,0.00718751
1.3483e-01,0.00768751
1.3486e-01,0.00750001
1.3490e-01,0.00782814
1.3493e-01,0.00775001
1.3496e-01,0.00754689
1.3499e-01,0.00781251
1.3502e-01,0.00784376
1.3506e-01,0.00818751
1.3509e-01,0.00764064
1.3512e-01,0.00762501
1.3515e-01,0.00757814
1.3518e-01,0.00784376
1.3522e-01,0.00801564
1.3525e-01,0.00742189
1.3528e-01,0.00726564
1.3531e-01,0.00773439
1.3534e-01,0.00739064
1.3538e-01,0.00760939
1.3541e-01,0.00765626
1.3544e-01,0.00800001
1.3547e-01,0.00762501
1.3550e-01,0.00809376
1.3554e-01,0.00720314
1.3557e-01,0.00807814
1.3560e-01,0.00825001
1.3563e-01,0.00751564
1.3566e-01,0.00815626
1.3570e-01,0.00809376
1.3573e-01,0.00818751
1.3576e-01,0.00768751
1.3579e-01,0.00740626
1.3582e-01,0.00732814
1.3586e-01,0.00795314
1.3589e-01,0.00809376
1.3592e-01,0.00820314
1.3595e-01,0.00831251
1.3598e-01,0.00873439
1.3602e-01,0.00798439
1.3605e-01,0.00818751
1.3608e-01,0.00810939
1.3611e-01,0.00750001
1.3614e-01,0.00807814
1.3618e-01,0.00795314
1.3621e-01,0.00753126
1.3624e-01,0.00757814
1.3627e-01,0.00745314
1.3630e-01,0.00748439
1.3634e-01,0.00803126
1.3637e-01,0.00837501
1.3640e-01,0.00831251
1.3643e-01,0.00810939
1.3646e-01,0.00809376
1.3650e-01,0.00746876
1.3653e-01,0.00781251
1.3656e-01,0.00812501
1.3659e-01,0.00784376
1.3662e-01,0.00825001
1.3666e-01,0.00828126
1.3669e-01,0.00834376
1.3672e-01,0.00756251
1.3675e-01,0.00787501
1.3678e-01,0.00818751
1.3682e-01,0.00884376
1.3685e-01,0.00776564
1.3688e-01,0.00770314
1.3691e-01,0.00815626
1.3694e-01,0.00762501
1.3698e-01,0.00753126
1.3701e-01,0.00807814
1.3704e-01,0.00814064
1.3707e-01,0.00854689
1.3710e-01,0.00803126
1.3714e-01,0.00771876
1.3717e-01,0.00839064
1.3720e-01,0.00831251
1.3723e-01,0.00920314
1.3726e-01,0.00843751
1.3730e-01,0.00825001
1.3733e-01,0.00842189
1.3736e-01,0.00784376
1.3739e-01,0.00828126
1.3742e-01,0.00835939
1.3746e-01,0.00854689
1.3749e-01,0.00890626
1.3752e-01,0.00935939
1.3755e-01,0.00937501
1.3758e-01,0.00935939
1.3762e-01,0.00975001
1.3765e-01,0.00892189
1.3768e-01,0.00951564
1.3771e-01,0.00968751
1.3774e-01,0.010625
1.3778e-01,0.00985939
1.3781e-01,0.01
1.3784e-01,0.0102969
1.3787e-01,0.0111875
1.3790e-01,0.0105
1.3794e-01,0.0110938
1.3797e-01,0.0117813
1.3800e-01,0.0109219
1.3803e-01,0.0107344
1.3806e-01,0.0114844
1.3810e-01,0.0116875
1.3813e-01,0.0115469
1.3816e-01,0.0113281
1.3819e-01,0.0120313
1.3822e-01,0.0111875
1.3826e-01,0.011625
1.3829e-01,0.0125625
1.3832e-01,0.0124531
1.3835e-01,0.0120625
1.3838e-01,0.0116094
1.3842e-01,0.0110156
1.3845e-01,0.0106875
1.3848e-01,0.0123594
1.3851e-01,0.0118906
1.3854e-01,0.012125
1.3858e-01,0.01175
1.3861e-01,0.012
1.3864e-01,0.0125
1.3867e-01,0.013
1.3870e-01,0.0131719
1.3874e-01,0.0129219
1.3877e-01,0.0127969
1.3880e-01,0.0128594
1.3883e-01,0.0130156
1.3886e-01,0.0133125
1.3890e-01,0.0129844
1.3893e-01,0.0127969
1.3896e-01,0.0128906
1.3899e-01,0.0131406
1.3902e-01,0.0135469
1.3906e-01,0.0139844
1.3909e-01,0.0145
1.3912e-01,0.014875
1.3915e-01,0.0152344
1.3918e-01,0.0149219
1.3922e-01,0.0150938
1.3925e-01,0.0145156
1.3928e-01,0.0159844
1.3931e-01,0.0164531
1.3934e-01,0.0165469
1.3938e-01,0.0178438
1.3941e-01,0.0175469
1.3944e-01,0.0178906
1.3947e-01,0.0200938
1.3950e-01,0.0198125
1.3954e-01,0.0195781
1.3957e-01,0.0209219
1.3960e-01,0.02175
1.3963e-01,0.0226719
1.3966e-01,0.0241563
1.3970e-01,0.0261719
1.3973e-01,0.0278438
1.3976e-01,0.0289688
1.3979e-01,0.0312031
1.3982e-01,0.0329375
1.3986e-01,0.0332188
1.3989e-01,0.0360469
1.3992e-01,0.0382813
1.3995e-01,0.039625
1.3998e-01,0.0411406
1.4002e-01,0.0406563
1.4005e-01,0.0410781
1.4008e-01,0.0439844
1.4011e-01,0.0462188
1.4014e-01,0.0478438
1.4018e-01,0.0461563
1.4021e-01,0.0440781
1.4024e-01,0.043125
1.4027e-01,0.0452344
1.4030e-01,0.0453281
1.4034e-01,0.0474063
1.4037e-01,0.0484844
1.4040e-01,0.047625
1.4043e-01,0.0477188
1.4046e-01,0.0502656
1.4050e-01,0.0547344
1.4053e-01,0.0574063
1.4056e-01,0.0596719
1.4059e-01,0.0624063
1.4062e-01,0.0662344
1.4066e-01,0.0688906
1.4069e-01,0.0685
1.4072e-01,0.0749531
1.4075e-01,0.0785
1.4078e-01,0.0823594
1.4082e-01,0.0898281
1.4085e-01,0.0988125
1.4088e-01,0.101859
1.4091e-01,0.105625
1.4094e-01,0.109094
1.4098e-01,0.109438
1.4101e-01,0.109688
1.4104e-01,0.1135
1.4107e-01,0.11525
1.4110e-01,0.118672
1.4114e-01,0.120422
1.4117e-01,0.118156
1.4120e-01,0.121078
1.4123e-01,0.118922
1.4126e-01,0.116422
1.4130e-01,0.118203
1.4133e-01,0.117344
1.4136e-01,0.114266
1.4139e-01,0.111094
1.4142e-01,0.106688
1.4146e-01,0.102875
1.4149e-01,0.101125
1.4152e-01,0.103828
1.4155e-01,0.103547
1.4158e-01,0.0995781
1.4162e-01,0.100859
1.4165e-01,0.0990625
1.4168e-01,0.102438
1.4171e-01,0.108094
1.4174e-01,0.107797
1.4178e-01,0.11075
1.4181e-01,0.111547
1.4184e-01,0.117563
1.4187e-01,0.126391
1.4190e-01,0.127203
1.4194e-01,0.125328
1.4197e-01,0.132813
1.4200e-01,0.141422
1.4203e-01,0.153859
1.4206e-01,0.162391
1.4210e-01,0.177531
1.4213e-01,0.185063
1.4216e-01,0.194859
1.4219e-01,0.2095
1.4222e-01,0.229703
1.4226e-01,0.252375
1.4229e-01,0.271641
1.4232e-01,0.294172
1.4235e-01,0.301031
1.4238e-01,0.32175
1.4242e-01,0.345203
1.4245e-01,0.378641
1.4248e-01,0.396578
1.4251e-01,0.425891
1.4254e-01,0.446781
1.4258e-01,0.482172
1.4261e-01,0.504938
1.4264e-01,0.540344
1.4267e-01,0.548391
1.4270e-01,0.577422
1.4274e-01,0.581313
1.4277e-01,0.584328
1.4280e-01,0.600016
1.4283e-01,0.607984
1.4286e-01,0.619906
1.4290e-01,0.638156
1.4293e-01,0.648438
1.4296e-01,0.660891
1.4299e-01,0.671938
1.4302e-01,0.661438
1.4306e-01,0.659172
1.4309e-01,0.659172
1.4312e-01,0.661672
1.4315e-01,0.658953
1.4318e-01,0.675438
1.4322e-01,0.675969
1.4325e-01,0.656984
1.4328e-01,0.63625
1.4331e-01,0.611344
1.4334e-01,0.595406
1.4338e-01,0.584922
1.4341e-01,0.555516
1.4344e-01,0.525719
1.4347e-01,0.485813
1.4350e-01,0.457781
1.4354e-01,0.415813
1.4357e-01,0.367063
1.4360e-01,0.327859
1.4363e-01,0.284906
1.4366e-01,0.250797
1.4370e-01,0.220172
1.4373e-01,0.194813
1.4376e-01,0.170953
1.4379e-01,0.149297
1.4382e-01,0.134844
1.4386e-01,0.122078
1.4389e-01,0.114844
1.4392e-01,0.103563
1.4395e-01,0.0951719
1.4398e-01,0.0869375
1.4402e-01,0.0825
1.4405e-01,0.0806094
1.4408e-01,0.0762344
1.4411e-01,0.0751094
1.4414e-01,0.0775156
1.4418e-01,0.0750469
1.4421e-01,0.0755781
1.4424e-01,0.0734219
1.4427e-01,0.0719844
1.4430e-01,0.0728594
1.4434e-01,0.0737813
1.4437e-01,0.073375
1.4440e-01,0.0731875
1.4443e-01,0.073
1.4446e-01,0.0727344
1.4450e-01,0.0726563
1.4453e-01,0.0710156
1.4456e-01,0.0686563
1.4459e-01,0.0651563
1.4462e-01,0.0619688
1.4466e-01,0.0614688
1.4469e-01,0.0611094
1.4472e-01,0.0581094
1.4475e-01,0.0523438
1.4478e-01,0.0500625
1.4482e-01,0.0448281
1.4485e-01,0.0438438
1.4488e-01,0.0412813
1.4491e-01,0.0401875
1.4494e-01,0.0384844
1.4498e-01,0.0376094
1.4501e-01,0.036125
1.4504e-01,0.0337188
1.4507e-01,0.0309375
1.4510e-01,0.0313594
1.4514e-01,0.0309375
1.4517e-01,0.0291563
1.4520e-01,0.0281406
1.4523e-01,0.0262344
1.4526e-01,0.0255313
1.4530e-01,0.024625
1.4533e-01,0.0237188
1.4536e-01,0.0230313
1.4539e-01,0.0228906
1.4542e-01,0.0231563
1.4546e-01,0.0221406
1.4549e-01,0.0217031
1.4552e-01,0.0206719
1.4555e-01,0.0208438
1.4558e-01,0.0204219
1.4562e-01,0.0190313
1.4565e-01,0.0175
1.4568e-01,0.0177188
1.4571e-01,0.0174063
1.4574e-01,0.0167813
1.4578e-01,0.0162656
1.4581e-01,0.0153906
1.4584e-01,0.0141094
1.4587e-01,0.0134063
1.4590e-01,0.0126563
1.4594e-01,0.0126406
1.4597e-01,0.0125781
1.4600e-01,0.0116406
1.4603e-01,0.0118125
1.4606e-01,0.011625
1.4610e-01,0.0123594
1.4613e-01,0.0117656
1.4616e-01,0.0110313
1.4619e-01,0.0109531
1.4622e-01,0.0109219
1.4626e-01,0.0113438
1.4629e-01,0.0115625
1.4632e-01,0.0111875
1.4635e-01,0.0102813
1.4638e-01,0.0103125
1.4642e-01,0.0106719
1.4645e-01,0.0108125
1.4648e-01,0.0109063
1.4651e-01,0.0104844
1.4654e-01,0.00987501
1.4658e-01,0.0100781
1.4661e-01,0.0108125
1.4664e-01,0.0116719
1.4667e-01,0.0121719
1.4670e-01,0.0113281
1.4674e-01,0.0111563
1.4677e-01,0.0116094
1.4680e-01,0.0111875
1.4683e-01,0.0115625
1.4686e-01,0.0112813
1.4690e-01,0.0114844
1.4693e-01,0.0105156
1.4696e-01,0.0109375
1.4699e-01,0.0110625
1.4702e-01,0.0108594
1.4706e-01,0.0104531
1.4709e-01,0.0105156
1.4712e-01,0.0118125
1.4715e-01,0.012
1.4718e-01,0.0125781
1.4722e-01,0.0119063
1.4725e-01,0.0119063
1.4728e-01,0.0125313
1.4731e-01,0.0122969
1.4734e-01,0.0131094
1.4738e-01,0.0130313
1.4741e-01,0.0130469
1.4744e-01,0.01275
1.4747e-01,0.0129063
1.4750e-01,0.0140156
1.4754e-01,0.0150156
1.4757e-01,0.0150313
1.4760e-01,0.015375
1.4763e-01,0.0160469
1.4766e-01,0.0156719
1.4770e-01,0.0168125
1.4773e-01,0.0170313
1.4776e-01,0.0187031
1.4779e-01,0.0191875
1.4782e-01,0.018625
1.4786e-01,0.0207344
1.4789e-01,0.0221875
1.4792e-01,0.0220469
1.4795e-01,0.0231875
1.4798e-01,0.0245938
1.4802e-01,0.025
1.4805e-01,0.025375
1.4808e-01,0.0244219
1.4811e-01,0.0247188
1.4814e-01,0.0242969
1.4818e-01,0.0234063
1.4821e-01,0.023
1.4824e-01,0.0218438
1.4827e-01,0.021125
1.4830e-01,0.0219375
1.4834e-01,0.0217813
1.4837e-01,0.0200938
1.4840e-01,0.0185469
1.4843e-01,0.0186094
1.4846e-01,0.0167969
1.4850e-01,0.0161719
1.4853e-01,0.0148594
1.4856e-01,0.014375
1.4859e-01,0.0130625
1.4862e-01,0.0126875
1.4866e-01,0.0120781
1.4869e-01,0.0108438
1.4872e-01,0.0112813
1.4875e-01,0.0104219
1.4878e-01,0.0100469
1.4882e-01,0.00951564
1.4885e-01,0.00943751
1.4888e-01,0.00898439
1.4891e-01,0.00876564
1.4894e-01,0.00900001
1.4898e-01,0.00862501
1.4901e-01,0.00837501
1.4904e-01,0.00793751
1.4907e-01,0.00870314
1.4910e-01,0.00820314
1.4914e-01,0.00768751
1.4917e-01,0.00759376
1.4920e-01,0.00832814
1.4923e-01,0.00837501
1.4926e-01,0.00821876
1.4930e-01,0.00789064
1.4933e-01,0.00775001
1.4936e-01,0.00837501
1.4939e-01,0.00864064
1.4942e-01,0.00767189
1.4946e-01,0.00731251
1.4949e-01,0.00828126
1.4952e-01,0.00862501
1.4955e-01,0.00804689
1.4958e-01,0.00832814
1.4962e-01,0.00840626
1.4965e-01,0.00785939
1.4968e-01,0.00818751
1.4971e-01,0.00776564
1.4974e-01,0.00792189
1.4978e-01,0.00782814
1.4981e-01,0.00779689
1.4984e-01,0.00767189
1.4987e-01,0.00695314
1.4990e-01,0.00704689
1.4994e-01,0.00793751
1.4997e-01,0.00839064
1.5000e-01,0.00768751
1.5003e-01,0.00778126
1.5006e-01,0.00759376
1.5010e-01,0.00809376
1.5013e-01,0.00778126
1.5016e-01,0.00723439
1.5019e-01,0.00700001
1.5022e-01,0.00698439
1.5026e-01,0.00712501
1.5029e-01,0.00704689
1.5032e-01,0.00760939
1.5035e-01,0.00817189
1.5038e-01,0.00817189
1.5042e-01,0.00793751
1.5045e-01,0.00812501
1.5048e-01,0.00740626
1.5051e-01,0.00771876
1.5054e-01,0.00790626
1.5058e-01,0.00809376
1.5061e-01,0.00789064
1.5064e-01,0.00785939
1.5067e-01,0.00789064
1.5070e-01,0.00810939
1.5074e-01,0.00792189
1.5077e-01,0.00773439
1.5080e-01,0.00784376
1.5083e-01,0.00731251
1.5086e-01,0.00695314
1.5090e-01,0.00715626
1.5093e-01,0.00775001
1.5096e-01,0.00793751
1.5099e-01,0.00775001
1.5102e-01,0.00725001
1.5106e-01,0.00775001
1.5109e-01,0.00782814
1.5112e-01,0.00784376
1.5115e-01,0.00828126
1.5118e-01,0.00714064
1.5122e-01,0.00676564
1.5125e-01,0.00667189
1.5128e-01,0.00720314
1.5131e-01,0.00714064
1.5134e-01,0.00743751
1.5138e-01,0.00715626
1.5141e-01,0.00756251
1.5144e-01,0.00770314
1.5147e-01,0.00792189
1.5150e-01,0.00770314
1.5154e-01,0.00759376
1.5157e-01,0.00804689
1.5160e-01,0.00748439
1.5163e-01,0.00723439
1.5166e-01,0.00751564
1.5170e-01,0.00756251
1.5173e-01,0.00723439
1.5176e-01,0.00726564
1.5179e-01,0.00782814
1.5182e-01,0.00765626
1.5186e-01,0.00800001
1.5189e-01,0.00732814
1.5192e-01,0.00737501
1.5195e-01,0.00759376
1.5198e-01,0.00767189
1.5202e-01,0.00729689
1.5205e-01,0.00710939
1.5208e-01,0.00685939
1.5211e-01,0.00670314
1.5214e-01,0.00687501
1.5218e-01,0.00670314
1.5221e-01,0.00701564
1.5224e-01,0.00710939
1.5227e-01,0.00751564
1.5230e-01,0.00762501
1.5234e-01,0.00718751
1.5237e-01,0.00751564
1.5240e-01,0.00737501
1.5243e-01,0.00726564
1.5246e-01,0.00765626
1.5250e-01,0.00760939
1.5253e-01,0.00700001
1.5256e-01,0.00740626
1.5259e-01,0.00784376
1.5262e-01,0.00740626
1.5266e-01,0.00734376
1.5269e-01,0.00690626
1.5272e-01,0.00710939
1.5275e-01,0.00726564
1.5278e-01,0.00701564
1.5282e-01,0.00704689
1.5285e-01,0.00753126
1.5288e-01,0.00734376
1.5291e-01,0.00651564
1.5294e-01,0.00665626
1.5298e-01,0.00692189
1.5301e-01,0.00745314
1.5304e-01,0.00782814
1.5307e-01,0.00801564
1.5310e-01,0.00773439
1.5314e-01,0.00768751
1.5317e-01,0.00751564
1.5320e-01,0.00751564
1.5323e-01,0.00762501
1.5326e-01,0.00756251
1.5330e-01,0.00690626
1.5333e-01,0.00739064
1.5336e-01,0.00740626
1.5339e-01,0.00685939
1.5342e-01,0.00732814
1.5346e-01,0.00715626
1.5349e-01,0.00795314
1.5352e-01,0.00720314
1.5355e-01,0.00732814
1.5358e-01,0.00762501
1.5362e-01,0.00770314
1.5365e-01,0.00718751
1.5368e-01,0.00762501
1.5371e-01,0.00728126
1.5374e-01,0.00821876
1.5378e-01,0.00739064
1.5381e-01,0.00735939
1.5384e-01,0.00717189
1.5387e-01,0.00678126
1.5390e-01,0.00698439
1.5394e-01,0.00778126
1.5397e-01,0.00800001
1.5400e-01,0.00756251
1.5403e-01,0.00764064
1.5406e-01,0.00726564
1.5410e-01,0.00726564
1.5413e-01,0.00735939
1.5416e-01,0.00756251
1.5419e-01,0.00768751
1.5422e-01,0.00835939
1.5426e-01,0.00870314
1.5429e-01,0.00831251
1.5432e-01,0.00789064
1.5435e-01,0.00823439
1.5438e-01,0.00850001
1.5442e-01,0.00879689
1.5445e-01,0.00795314
1.5448e-01,0.00782814
1.5451e-01,0.00768751
1.5454e-01,0.00806251
1.5458e-01,0.00764064
1.5461e-01,0.00785939
1.5464e-01,0.00732814
1.5467e-01,0.00851564
1.5470e-01,0.00887501
1.5474e-01,0.00829689
1.5477e-01,0.00767189
1.5480e-01,0.00762501
1.5483e-01,0.00707814
1.5486e-01,0.00671876
1.5490e-01,0.00765626
1.5493e-01,0.00781251
1.5496e-01,0.00856251
1.5499e-01,0.00800001
1.5502e-01,0.00789064
1.5506e-01,0.00790626
1.5509e-01,0.00835939
1.5512e-01,0.00831251
1.5515e-01,0.00870314
1.5518e-01,0.00831251
1.5522e-01,0.00840626
1.5525e-01,0.00818751
1.5528e-01,0.00825001
1.5531e-01,0.00750001
1.5534e-01,0.00773439
1.5538e-01,0.00809376
1.5541e-01,0.00792189
1.5544e-01,0.00839064
1.5547e-01,0.00829689
1.5550e-01,0.00815626
1.5554e-01,0.00773439
1.5557e-01,0.00800001
1.5560e-01,0.00773439
1.5563e-01,0.00740626
1.5566e-01,0.00737501
1.5570e-01,0.00729689
1.5573e-01,0.00739064
1.5576e-01,0.00850001
1.5579e-01,0.00903126
1.5582e-01,0.00850001
1.5586e-01,0.00878126
1.5589e-01,0.00806251
1.5592e-01,0.00859376
1.5595e-01,0.00853126
1.5598e-01,0.00851564
1.5602e-01,0.00860939
1.5605e-01,0.00851564
1.5608e-01,0.00882814
1.5611e-01,0.00907814
1.5614e-01,0.00884376
1.5618e-01,0.00850001
1.5621e-01,0.00896876
1.5624e-01,0.00864064
1.5627e-01,0.00898439
1.5630e-01,0.00906251
1.5634e-01,0.00892189
1.5637e-01,0.00862501
1.5640e-01,0.00817189
1.5643e-01,0.00843751
1.5646e-01,0.00893751
1.5650e-01,0.00951564
1.5653e-01,0.00898439
1.5656e-01,0.00995314
1.5659e-01,0.010125
1.5662e-01,0.0107188
1.5666e-01,0.01075
1.5669e-01,0.0107188
1.5672e-01,0.0102188
1.5675e-01,0.00935939
1.5678e-01,0.01025
1.5682e-01,0.0109688
1.5685e-01,0.01025
1.5688e-01,0.0114219
1.5691e-01,0.0119063
1.5694e-01,0.0111875
1.5698e-01,0.0107344
1.5701e-01,0.0122813
1.5704e-01,0.0122031
1.5707e-01,0.0116094
1.5710e-01,0.0118906
1.5714e-01,0.01175
1.5717e-01,0.0122031
1.5720e-01,0.0119844
1.5723e-01,0.0118594
1.5726e-01,0.011
1.5730e-01,0.0108594
1.5733e-01,0.0103594
1.5736e-01,0.0105156
1.5739e-01,0.0110938
1.5742e-01,0.0114688
1.5746e-01,0.0114688
1.5749e-01,0.0128438
1.5752e-01,0.01275
1.5755e-01,0.0125
1.5758e-01,0.0132656
1.5762e-01,0.0133125
1.5765e-01,0.0126406
1.5768e-01,0.0133125
1.5771e-01,0.0138125
1.5774e-01,0.0134531
1.5778e-01,0.0136406
1.5781e-01,0.0134688
1.5784e-01,0.0139531
1.5787e-01,0.0150938
1.5790e-01,0.0153281
