Zeeman-effect/yellow_mag1.300_horiz.csv

Model,MSO2024
Firmware Version,1.52

Point Format,Y
Horizontal Units,S
Horizontal Scale,0.01
Sample Interval,3.2e-05
Filter Frequency,2e+08
Record Length,3125
Gating,0.0% to 100.0%
Probe Attenuation,1
Vertical Units,V
Vertical Offset,0
Vertical Scale,0.02
Label,
TIME,CH1
1.2180e-01,0.0238062
1.2183e-01,0.0244844
1.2186e-01,0.0246156
1.2190e-01,0.0237844
1.2193e-01,0.0247406
1.2196e-01,0.0239125
1.2199e-01,0.0241219
1.2202e-01,0.0235844
1.2206e-01,0.0233156
1.2209e-01,0.0237281
1.2212e-01,0.0235531
1.2215e-01,0.0235687
1.2218e-01,0.0240062
1.2222e-01,0.0240437
1.2225e-01,0.0245875
1.2228e-01,0.0246437
1.2231e-01,0.0243437
1.2234e-01,0.0237937
1.2238e-01,0.0235781
1.2241e-01,0.0239656
1.2244e-01,0.0234906
1.2247e-01,0.0234406
1.2250e-01,0.0238812
1.2254e-01,0.0234594
1.2257e-01,0.0233906
1.2260e-01,0.0231844
1.2263e-01,0.0228437
1.2266e-01,0.0230344
1.2270e-01,0.0232906
1.2273e-01,0.0232094
1.2276e-01,0.0231562
1.2279e-01,0.0236781
1.2282e-01,0.0240437
1.2286e-01,0.0237437
1.2289e-01,0.0245125
1.2292e-01,0.0236937
1.2295e-01,0.0236531
1.2298e-01,0.0240281
1.2302e-01,0.0243094
1.2305e-01,0.0244906
1.2308e-01,0.0244656
1.2311e-01,0.0239219
1.2314e-01,0.0237
1.2318e-01,0.023
1.2321e-01,0.0234969
1.2324e-01,0.0239125
1.2327e-01,0.0235531
1.2330e-01,0.0235562
1.2334e-01,0.0234781
1.2337e-01,0.0236656
1.2340e-01,0.0232562
1.2343e-01,0.023375
1.2346e-01,0.0231
1.2350e-01,0.023425
1.2353e-01,0.023075
1.2356e-01,0.02315
1.2359e-01,0.0222594
1.2362e-01,0.0232719
1.2366e-01,0.0235687
1.2369e-01,0.0229969
1.2372e-01,0.0232437
1.2375e-01,0.0229031
1.2378e-01,0.0227781
1.2382e-01,0.0233312
1.2385e-01,0.0235625
1.2388e-01,0.0233844
1.2391e-01,0.024
1.2394e-01,0.0237969
1.2398e-01,0.0233219
1.2401e-01,0.0234531
1.2404e-01,0.024225
1.2407e-01,0.0239281
1.2410e-01,0.0233812
1.2414e-01,0.0234812
1.2417e-01,0.0227844
1.2420e-01,0.0238906
1.2423e-01,0.0243469
1.2426e-01,0.0237937
1.2430e-01,0.0235875
1.2433e-01,0.0227281
1.2436e-01,0.0231812
1.2439e-01,0.0230125
1.2442e-01,0.0229094
1.2446e-01,0.0228844
1.2449e-01,0.022775
1.2452e-01,0.0235531
1.2455e-01,0.0235562
1.2458e-01,0.02365
1.2462e-01,0.0238344
1.2465e-01,0.0238469
1.2468e-01,0.0235094
1.2471e-01,0.0236062
1.2474e-01,0.0244125
1.2478e-01,0.0238344
1.2481e-01,0.0242187
1.2484e-01,0.0244156
1.2487e-01,0.024375
1.2490e-01,0.0239312
1.2494e-01,0.0236031
1.2497e-01,0.0238719
1.2500e-01,0.0239187
1.2503e-01,0.0240906
1.2506e-01,0.0235531
1.2510e-01,0.0233219
1.2513e-01,0.0238687
1.2516e-01,0.0231781
1.2519e-01,0.023125
1.2522e-01,0.0226781
1.2526e-01,0.0232594
1.2529e-01,0.02335
1.2532e-01,0.0230687
1.2535e-01,0.0235469
1.2538e-01,0.0233875
1.2542e-01,0.0236281
1.2545e-01,0.0242281
1.2548e-01,0.02445
1.2551e-01,0.0240625
1.2554e-01,0.0242031
1.2558e-01,0.0245312
1.2561e-01,0.0240375
1.2564e-01,0.0237687
1.2567e-01,0.0234969
1.2570e-01,0.0231937
1.2574e-01,0.0235844
1.2577e-01,0.0246781
1.2580e-01,0.0248844
1.2583e-01,0.0251156
1.2586e-01,0.0251031
1.2590e-01,0.0243875
1.2593e-01,0.0244844
1.2596e-01,0.0254969
1.2599e-01,0.02545
1.2602e-01,0.0245281
1.2606e-01,0.0245281
1.2609e-01,0.0243062
1.2612e-01,0.0234031
1.2615e-01,0.023675
1.2618e-01,0.02345
1.2622e-01,0.0239
1.2625e-01,0.0242469
1.2628e-01,0.025075
1.2631e-01,0.0261
1.2634e-01,0.0248781
1.2638e-01,0.0249656
1.2641e-01,0.0245781
1.2644e-01,0.0241187
1.2647e-01,0.0242625
1.2650e-01,0.0253
1.2654e-01,0.0261687
1.2657e-01,0.0262281
1.2660e-01,0.0268875
1.2663e-01,0.0264375
1.2666e-01,0.0261719
1.2670e-01,0.0266312
1.2673e-01,0.0260812
1.2676e-01,0.0262656
1.2679e-01,0.0254219
1.2682e-01,0.0260406
1.2686e-01,0.0253375
1.2689e-01,0.0250562
1.2692e-01,0.0255687
1.2695e-01,0.025825
1.2698e-01,0.0260844
1.2702e-01,0.0263281
1.2705e-01,0.0265031
1.2708e-01,0.0260687
1.2711e-01,0.0257469
1.2714e-01,0.0257375
1.2718e-01,0.0260906
1.2721e-01,0.0259
1.2724e-01,0.0265906
1.2727e-01,0.0272281
1.2730e-01,0.0258625
1.2734e-01,0.0261062
1.2737e-01,0.0249594
1.2740e-01,0.0256312
1.2743e-01,0.0261906
1.2746e-01,0.0262156
1.2750e-01,0.0260969
1.2753e-01,0.0256969
1.2756e-01,0.0266719
1.2759e-01,0.0272406
1.2762e-01,0.0279875
1.2766e-01,0.0282969
1.2769e-01,0.0272031
1.2772e-01,0.0266656
1.2775e-01,0.0256156
1.2778e-01,0.0272812
1.2782e-01,0.0266
1.2785e-01,0.0265687
1.2788e-01,0.0262719
1.2791e-01,0.0264406
1.2794e-01,0.02705
1.2798e-01,0.0277469
1.2801e-01,0.0287906
1.2804e-01,0.0291062
1.2807e-01,0.0295469
1.2810e-01,0.0295969
1.2814e-01,0.0291406
1.2817e-01,0.029675
1.2820e-01,0.0299937
1.2823e-01,0.028775
1.2826e-01,0.0276406
1.2830e-01,0.0288062
1.2833e-01,0.0281656
1.2836e-01,0.0280031
1.2839e-01,0.0281281
1.2842e-01,0.0282187
1.2846e-01,0.0303594
1.2849e-01,0.0290469
1.2852e-01,0.0287562
1.2855e-01,0.0288719
1.2858e-01,0.0277219
1.2862e-01,0.0272781
1.2865e-01,0.0279594
1.2868e-01,0.0291656
1.2871e-01,0.0293062
1.2874e-01,0.0313187
1.2878e-01,0.0316156
1.2881e-01,0.0305406
1.2884e-01,0.0292937
1.2887e-01,0.0283844
1.2890e-01,0.0301094
1.2894e-01,0.03
1.2897e-01,0.030125
1.2900e-01,0.0301469
1.2903e-01,0.0309906
1.2906e-01,0.0311562
1.2910e-01,0.0315687
1.2913e-01,0.0326031
1.2916e-01,0.031825
1.2919e-01,0.0315031
1.2922e-01,0.0298094
1.2926e-01,0.0296687
1.2929e-01,0.0304062
1.2932e-01,0.0317219
1.2935e-01,0.0330812
1.2938e-01,0.032625
1.2942e-01,0.0334937
1.2945e-01,0.0334312
1.2948e-01,0.0338062
1.2951e-01,0.0342031
1.2954e-01,0.03545
1.2958e-01,0.034875
1.2961e-01,0.034375
1.2964e-01,0.0353844
1.2967e-01,0.0341594
1.2970e-01,0.0339969
1.2974e-01,0.0339844
1.2977e-01,0.0352937
1.2980e-01,0.0349969
1.2983e-01,0.0352062
1.2986e-01,0.0360969
1.2990e-01,0.0361406
1.2993e-01,0.0363812
1.2996e-01,0.0355844
1.2999e-01,0.0368125
1.3002e-01,0.0377969
1.3006e-01,0.0379625
1.3009e-01,0.0384406
1.3012e-01,0.0382656
1.3015e-01,0.0407031
1.3018e-01,0.0419469
1.3022e-01,0.0409531
1.3025e-01,0.0406781
1.3028e-01,0.0418719
1.3031e-01,0.0424469
1.3034e-01,0.041525
1.3038e-01,0.0446156
1.3041e-01,0.0441219
1.3044e-01,0.0440406
1.3047e-01,0.046275
1.3050e-01,0.046925
1.3054e-01,0.0471656
1.3057e-01,0.0456125
1.3060e-01,0.0455687
1.3063e-01,0.0453687
1.3066e-01,0.0469375
1.3070e-01,0.0466531
1.3073e-01,0.0474281
1.3076e-01,0.0501344
1.3079e-01,0.050075
1.3082e-01,0.0505375
1.3086e-01,0.0523344
1.3089e-01,0.0537625
1.3092e-01,0.05425
1.3095e-01,0.0534719
1.3098e-01,0.0548719
1.3102e-01,0.0548031
1.3105e-01,0.0541031
1.3108e-01,0.0543187
1.3111e-01,0.0555469
1.3114e-01,0.0578875
1.3118e-01,0.0604187
1.3121e-01,0.0608844
1.3124e-01,0.0602687
1.3127e-01,0.0628844
1.3130e-01,0.0642281
1.3134e-01,0.0646562
1.3137e-01,0.0648687
1.3140e-01,0.0653
1.3143e-01,0.0663937
1.3146e-01,0.0671312
1.3150e-01,0.0674656
1.3153e-01,0.0687625
1.3156e-01,0.0688156
1.3159e-01,0.0666531
1.3162e-01,0.0639281
1.3166e-01,0.0633125
1.3169e-01,0.0655531
1.3172e-01,0.0651062
1.3175e-01,0.06255
1.3178e-01,0.0629406
1.3182e-01,0.0641687
1.3185e-01,0.0648187
1.3188e-01,0.0654719
1.3191e-01,0.0641062
1.3194e-01,0.0635187
1.3198e-01,0.064675
1.3201e-01,0.0627062
1.3204e-01,0.0618
1.3207e-01,0.0614375
1.3210e-01,0.0578875
1.3214e-01,0.0567875
1.3217e-01,0.0563656
1.3220e-01,0.0560531
1.3223e-01,0.0545969
1.3226e-01,0.0511719
1.3230e-01,0.0488625
1.3233e-01,0.0500437
1.3236e-01,0.0483844
1.3239e-01,0.0459594
1.3242e-01,0.0451312
1.3246e-01,0.0469531
1.3249e-01,0.0463
1.3252e-01,0.0440687
1.3255e-01,0.0422719
1.3258e-01,0.0423875
1.3262e-01,0.0411812
1.3265e-01,0.0402187
1.3268e-01,0.0392531
1.3271e-01,0.0383219
1.3274e-01,0.0363969
1.3278e-01,0.0357719
1.3281e-01,0.0346687
1.3284e-01,0.0357469
1.3287e-01,0.0343062
1.3290e-01,0.0340719
1.3294e-01,0.0331406
1.3297e-01,0.032825
1.3300e-01,0.0321094
1.3303e-01,0.0324875
1.3306e-01,0.03205
1.3310e-01,0.0306156
1.3313e-01,0.0305781
1.3316e-01,0.0306625
1.3319e-01,0.0327062
1.3322e-01,0.0312906
1.3326e-01,0.0292469
1.3329e-01,0.0286344
1.3332e-01,0.028025
1.3335e-01,0.0273969
1.3338e-01,0.0272812
1.3342e-01,0.0278937
1.3345e-01,0.029
1.3348e-01,0.0277687
1.3351e-01,0.0277719
1.3354e-01,0.0271687
1.3358e-01,0.0268312
1.3361e-01,0.0262281
1.3364e-01,0.0271406
1.3367e-01,0.0273906
1.3370e-01,0.0266094
1.3374e-01,0.0260687
1.3377e-01,0.0265156
1.3380e-01,0.0266969
1.3383e-01,0.0261875
1.3386e-01,0.026275
1.3390e-01,0.0254531
1.3393e-01,0.0250094
1.3396e-01,0.0253125
1.3399e-01,0.0248125
1.3402e-01,0.0250937
1.3406e-01,0.0249562
1.3409e-01,0.0252062
1.3412e-01,0.02405
1.3415e-01,0.0239969
1.3418e-01,0.0247875
1.3422e-01,0.024775
1.3425e-01,0.0254281
1.3428e-01,0.02505
1.3431e-01,0.0248531
1.3434e-01,0.0238812
1.3438e-01,0.0234531
1.3441e-01,0.0240031
1.3444e-01,0.02455
1.3447e-01,0.0250156
1.3450e-01,0.0239844
1.3454e-01,0.0245
1.3457e-01,0.0250344
1.3460e-01,0.0254062
1.3463e-01,0.0258437
1.3466e-01,0.0269437
1.3470e-01,0.0261531
1.3473e-01,0.0249125
1.3476e-01,0.0246656
1.3479e-01,0.0249062
1.3482e-01,0.024875
1.3486e-01,0.0243156
1.3489e-01,0.0251906
1.3492e-01,0.0250437
1.3495e-01,0.0245344
1.3498e-01,0.0252562
1.3502e-01,0.0249125
1.3505e-01,0.0256562
1.3508e-01,0.0246656
1.3511e-01,0.0247281
1.3514e-01,0.0248187
1.3518e-01,0.0246375
1.3521e-01,0.02535
1.3524e-01,0.02465
1.3527e-01,0.0247031
1.3530e-01,0.0267281
1.3534e-01,0.0265375
1.3537e-01,0.0255531
1.3540e-01,0.0249562
1.3543e-01,0.0238562
1.3546e-01,0.024625
1.3550e-01,0.0249562
1.3553e-01,0.025725
1.3556e-01,0.0247406
1.3559e-01,0.0248594
1.3562e-01,0.0238562
1.3566e-01,0.0242469
1.3569e-01,0.0246219
1.3572e-01,0.0256656
1.3575e-01,0.0253312
1.3578e-01,0.024375
1.3582e-01,0.0249281
1.3585e-01,0.0250625
1.3588e-01,0.0255937
1.3591e-01,0.0261437
1.3594e-01,0.0257906
1.3598e-01,0.0246469
1.3601e-01,0.0246969
1.3604e-01,0.0256062
1.3607e-01,0.0249156
1.3610e-01,0.0246031
1.3614e-01,0.0245594
1.3617e-01,0.0244469
1.3620e-01,0.0251062
1.3623e-01,0.0248437
1.3626e-01,0.02485
1.3630e-01,0.0241719
1.3633e-01,0.0253969
1.3636e-01,0.0256531
1.3639e-01,0.0263469
1.3642e-01,0.0260812
1.3646e-01,0.0271312
1.3649e-01,0.0265594
1.3652e-01,0.027275
1.3655e-01,0.02685
1.3658e-01,0.0256594
1.3662e-01,0.0254594
1.3665e-01,0.0240156
1.3668e-01,0.0254
1.3671e-01,0.0246844
1.3674e-01,0.0244812
1.3678e-01,0.0250875
1.3681e-01,0.0240375
1.3684e-01,0.0240469
1.3687e-01,0.0239687
1.3690e-01,0.0238187
1.3694e-01,0.0241937
1.3697e-01,0.0244281
1.3700e-01,0.0241281
1.3703e-01,0.0236656
1.3706e-01,0.0243687
1.3710e-01,0.0234781
1.3713e-01,0.0241562
1.3716e-01,0.0232094
1.3719e-01,0.024525
1.3722e-01,0.0242812
1.3726e-01,0.0232625
1.3729e-01,0.0232125
1.3732e-01,0.0228156
1.3735e-01,0.0234531
1.3738e-01,0.0233344
1.3742e-01,0.0228781
1.3745e-01,0.0237969
1.3748e-01,0.0241062
1.3751e-01,0.024475
1.3754e-01,0.0235187
1.3758e-01,0.02335
1.3761e-01,0.0232187
1.3764e-01,0.0229062
1.3767e-01,0.0232062
1.3770e-01,0.0233875
1.3774e-01,0.0241187
1.3777e-01,0.0238094
1.3780e-01,0.02425
1.3783e-01,0.0239562
1.3786e-01,0.0237344
1.3790e-01,0.0238719
1.3793e-01,0.0231031
1.3796e-01,0.0235781
1.3799e-01,0.0244062
1.3802e-01,0.0236312
1.3806e-01,0.0242344
1.3809e-01,0.0247187
1.3812e-01,0.0241375
1.3815e-01,0.0241125
1.3818e-01,0.0240844
1.3822e-01,0.0239594
1.3825e-01,0.0248375
1.3828e-01,0.024625
1.3831e-01,0.0245344
1.3834e-01,0.0242844
1.3838e-01,0.0243531
1.3841e-01,0.0242625
1.3844e-01,0.0246062
1.3847e-01,0.0243187
1.3850e-01,0.0239844
1.3854e-01,0.0243844
1.3857e-01,0.0249562
1.3860e-01,0.0240719
1.3863e-01,0.0241656
1.3866e-01,0.0232187
1.3870e-01,0.0244656
1.3873e-01,0.0242906
1.3876e-01,0.02505
1.3879e-01,0.0244281
1.3882e-01,0.0242406
1.3886e-01,0.0249562
1.3889e-01,0.024375
1.3892e-01,0.0240656
1.3895e-01,0.0239219
1.3898e-01,0.0232437
1.3902e-01,0.0232312
1.3905e-01,0.0241562
1.3908e-01,0.0251875
1.3911e-01,0.0247625
1.3914e-01,0.0247969
1.3918e-01,0.0248906
1.3921e-01,0.0246531
1.3924e-01,0.0248875
1.3927e-01,0.0249375
1.3930e-01,0.024675
1.3934e-01,0.024375
1.3937e-01,0.0248437
1.3940e-01,0.0248219
1.3943e-01,0.0249437
1.3946e-01,0.0243469
1.3950e-01,0.0251375
1.3953e-01,0.0256187
1.3956e-01,0.0248094
1.3959e-01,0.0257844
1.3962e-01,0.0253375
1.3966e-01,0.0257781
1.3969e-01,0.0249437
1.3972e-01,0.0248875
1.3975e-01,0.0253937
1.3978e-01,0.0252062
1.3982e-01,0.0252
1.3985e-01,0.0247125
1.3988e-01,0.0249437
1.3991e-01,0.0253937
1.3994e-01,0.0266344
1.3998e-01,0.0255437
1.4001e-01,0.0257406
1.4004e-01,0.025625
1.4007e-01,0.0247375
1.4010e-01,0.0263812
1.4014e-01,0.0266219
1.4017e-01,0.0268031
1.4020e-01,0.0263781
1.4023e-01,0.0261375
1.4026e-01,0.0260125
1.4030e-01,0.0251125
1.4033e-01,0.0261312
1.4036e-01,0.0268781
1.4039e-01,0.0261437
1.4042e-01,0.0260062
1.4046e-01,0.0268531
1.4049e-01,0.0271469
1.4052e-01,0.0275531
1.4055e-01,0.0278312
1.4058e-01,0.0271062
1.4062e-01,0.0271312
1.4065e-01,0.0276375
1.4068e-01,0.0271062
1.4071e-01,0.0268937
1.4074e-01,0.0262344
1.4078e-01,0.0264844
1.4081e-01,0.0268344
1.4084e-01,0.0278781
1.4087e-01,0.0277656
1.4090e-01,0.0273969
1.4094e-01,0.0274062
1.4097e-01,0.0268
1.4100e-01,0.0271219
1.4103e-01,0.0261156
1.4106e-01,0.0266906
1.4110e-01,0.0267187
1.4113e-01,0.0270906
1.4116e-01,0.0278719
1.4119e-01,0.0279281
1.4122e-01,0.0279031
1.4126e-01,0.0287219
1.4129e-01,0.0293437
1.4132e-01,0.0280156
1.4135e-01,0.0288437
1.4138e-01,0.0288531
1.4142e-01,0.0289219
1.4145e-01,0.0288719
1.4148e-01,0.0290031
1.4151e-01,0.0286812
1.4154e-01,0.0282
1.4158e-01,0.0280219
1.4161e-01,0.0285062
1.4164e-01,0.0294656
1.4167e-01,0.0294
1.4170e-01,0.0320094
1.4174e-01,0.0310219
1.4177e-01,0.0291125
1.4180e-01,0.0276437
1.4183e-01,0.02795
1.4186e-01,0.0291562
1.4190e-01,0.0304906
1.4193e-01,0.0288812
1.4196e-01,0.028875
1.4199e-01,0.0278375
1.4202e-01,0.0278625
1.4206e-01,0.0278969
1.4209e-01,0.0277719
1.4212e-01,0.0291
1.4215e-01,0.0305875
1.4218e-01,0.0307125
1.4222e-01,0.0294812
1.4225e-01,0.0289594
1.4228e-01,0.0290094
1.4231e-01,0.0298281
1.4234e-01,0.0306781
1.4238e-01,0.0304562
1.4241e-01,0.0303812
1.4244e-01,0.0299844
1.4247e-01,0.0302625
1.4250e-01,0.0325094
1.4254e-01,0.032175
1.4257e-01,0.0316469
1.4260e-01,0.0329844
1.4263e-01,0.03195
1.4266e-01,0.0322
1.4270e-01,0.03335
1.4273e-01,0.0338031
1.4276e-01,0.0334281
1.4279e-01,0.0346844
1.4282e-01,0.0338781
1.4286e-01,0.0336656
1.4289e-01,0.0333469
1.4292e-01,0.0351844
1.4295e-01,0.0344281
1.4298e-01,0.0348125
1.4302e-01,0.0355531
1.4305e-01,0.036975
1.4308e-01,0.0403656
1.4311e-01,0.0405625
1.4314e-01,0.0411719
1.4318e-01,0.0404156
1.4321e-01,0.0422687
1.4324e-01,0.0418656
1.4327e-01,0.0418719
1.4330e-01,0.0401656
1.4334e-01,0.0419562
1.4337e-01,0.0418156
1.4340e-01,0.0434875
1.4343e-01,0.0446656
1.4346e-01,0.0484781
1.4350e-01,0.0499187
1.4353e-01,0.0510562
1.4356e-01,0.051025
1.4359e-01,0.0519687
1.4362e-01,0.0526469
1.4366e-01,0.0536844
1.4369e-01,0.0557531
1.4372e-01,0.0566281
1.4375e-01,0.0575656
1.4378e-01,0.0571562
1.4382e-01,0.0592969
1.4385e-01,0.0586531
1.4388e-01,0.0605687
1.4391e-01,0.0598219
1.4394e-01,0.0608719
1.4398e-01,0.0607594
1.4401e-01,0.0591031
1.4404e-01,0.0618656
1.4407e-01,0.0600125
1.4410e-01,0.0589625
1.4414e-01,0.0613312
1.4417e-01,0.0598187
1.4420e-01,0.0585656
1.4423e-01,0.0594687
1.4426e-01,0.0585531
1.4430e-01,0.0590094
1.4433e-01,0.060425
1.4436e-01,0.0567812
1.4439e-01,0.0559875
1.4442e-01,0.0545125
1.4446e-01,0.053725
1.4449e-01,0.0524437
1.4452e-01,0.0494781
1.4455e-01,0.04945
1.4458e-01,0.0481344
1.4462e-01,0.0462594
1.4465e-01,0.0441562
1.4468e-01,0.0406969
1.4471e-01,0.0398844
1.4474e-01,0.0377844
1.4478e-01,0.0378375
1.4481e-01,0.0365969
1.4484e-01,0.0366937
1.4487e-01,0.0347031
1.4490e-01,0.0335125
1.4494e-01,0.0324625
1.4497e-01,0.0311469
1.4500e-01,0.0302969
1.4503e-01,0.0285812
1.4506e-01,0.0295656
1.4510e-01,0.0302
1.4513e-01,0.0293437
1.4516e-01,0.0296562
1.4519e-01,0.0287562
1.4522e-01,0.0278812
1.4526e-01,0.0276156
1.4529e-01,0.0277969
1.4532e-01,0.0269219
1.4535e-01,0.0270844
1.4538e-01,0.0267844
1.4542e-01,0.0271812
1.4545e-01,0.0280625
1.4548e-01,0.02745
1.4551e-01,0.026075
1.4554e-01,0.0254437
1.4558e-01,0.0265375
1.4561e-01,0.0267437
1.4564e-01,0.026425
1.4567e-01,0.0263
1.4570e-01,0.0262156
1.4574e-01,0.027625
1.4577e-01,0.0273125
1.4580e-01,0.0262156
1.4583e-01,0.0274125
1.4586e-01,0.0262219
1.4590e-01,0.0266156
1.4593e-01,0.0271375
1.4596e-01,0.0265281
1.4599e-01,0.0267625
1.4602e-01,0.0264625
1.4606e-01,0.0267406
1.4609e-01,0.026325
1.4612e-01,0.0262031
1.4615e-01,0.026575
1.4618e-01,0.0260281
1.4622e-01,0.0255875
1.4625e-01,0.0258062
1.4628e-01,0.0259562
1.4631e-01,0.0266406
1.4634e-01,0.0268344
1.4638e-01,0.0259531
1.4641e-01,0.0259125
1.4644e-01,0.0280344
1.4647e-01,0.0272125
1.4650e-01,0.0269062
1.4654e-01,0.0266156
1.4657e-01,0.02685
1.4660e-01,0.0275094
1.4663e-01,0.0274937
1.4666e-01,0.0265906
1.4670e-01,0.0256875
1.4673e-01,0.0259375
1.4676e-01,0.0260781
1.4679e-01,0.0268531
1.4682e-01,0.0277406
1.4686e-01,0.02805
1.4689e-01,0.0279719
1.4692e-01,0.0274281
1.4695e-01,0.0271656
1.4698e-01,0.0265719
1.4702e-01,0.0275062
1.4705e-01,0.0263875
1.4708e-01,0.0268062
1.4711e-01,0.0272062
1.4714e-01,0.0269937
1.4718e-01,0.0263094
1.4721e-01,0.0261781
1.4724e-01,0.0258625
1.4727e-01,0.0252187
1.4730e-01,0.0266406
1.4734e-01,0.0260469
1.4737e-01,0.0272969
1.4740e-01,0.0275906
1.4743e-01,0.0279656
1.4746e-01,0.027975
1.4750e-01,0.0277844
1.4753e-01,0.0277531
1.4756e-01,0.0276312
1.4759e-01,0.0267906
1.4762e-01,0.0265531
1.4766e-01,0.0264031
1.4769e-01,0.0262625
1.4772e-01,0.02625
1.4775e-01,0.0259875
1.4778e-01,0.0268906
1.4782e-01,0.026475
1.4785e-01,0.0266562
1.4788e-01,0.0259531
1.4791e-01,0.0268562
1.4794e-01,0.0259062
1.4798e-01,0.02525
1.4801e-01,0.0249625
1.4804e-01,0.0259562
1.4807e-01,0.025575
1.4810e-01,0.0257125
1.4814e-01,0.0254406
1.4817e-01,0.0250687
1.4820e-01,0.0257312
1.4823e-01,0.025275
1.4826e-01,0.0256156
1.4830e-01,0.0250344
1.4833e-01,0.0253812
1.4836e-01,0.026675
1.4839e-01,0.02715
1.4842e-01,0.0263969
1.4846e-01,0.0261625
1.4849e-01,0.025925
1.4852e-01,0.0259562
1.4855e-01,0.0258562
1.4858e-01,0.0255812
1.4862e-01,0.0248812
1.4865e-01,0.0247281
1.4868e-01,0.0250344
1.4871e-01,0.0259781
1.4874e-01,0.0254687
1.4878e-01,0.0261625
1.4881e-01,0.0260719
1.4884e-01,0.0254281
1.4887e-01,0.0263031
1.4890e-01,0.02495
1.4894e-01,0.0245406
1.4897e-01,0.0240281
1.4900e-01,0.02525
1.4903e-01,0.0265969
1.4906e-01,0.0266125
1.4910e-01,0.0261906
1.4913e-01,0.0256969
1.4916e-01,0.0246469
1.4919e-01,0.0232906
1.4922e-01,0.0234406
1.4926e-01,0.0242969
1.4929e-01,0.0239844
1.4932e-01,0.0248344
1.4935e-01,0.0244625
1.4938e-01,0.0244469
1.4942e-01,0.0241375
1.4945e-01,0.0233125
1.4948e-01,0.0240375
1.4951e-01,0.0240156
1.4954e-01,0.0241625
1.4958e-01,0.0231062
1.4961e-01,0.0236719
1.4964e-01,0.0231469
1.4967e-01,0.0226469
1.4970e-01,0.0221406
1.4974e-01,0.0225062
1.4977e-01,0.0226812
1.4980e-01,0.0224
1.4983e-01,0.0231906
1.4986e-01,0.0234312
1.4990e-01,0.0241844
1.4993e-01,0.0229375
1.4996e-01,0.0223469
1.4999e-01,0.0218781
1.5002e-01,0.0221156
1.5006e-01,0.0225937
1.5009e-01,0.0223219
1.5012e-01,0.0230812
1.5015e-01,0.0231094
1.5018e-01,0.0229344
1.5022e-01,0.0227781
1.5025e-01,0.0223062
1.5028e-01,0.0225375
1.5031e-01,0.0225719
1.5034e-01,0.0232906
1.5038e-01,0.0230625
1.5041e-01,0.0233219
1.5044e-01,0.023075
1.5047e-01,0.022925
1.5050e-01,0.0224812
1.5054e-01,0.0226937
1.5057e-01,0.0222656
1.5060e-01,0.0218281
1.5063e-01,0.0226031
1.5066e-01,0.0225094
1.5070e-01,0.0224906
1.5073e-01,0.0231625
1.5076e-01,0.0226562
1.5079e-01,0.0225812
1.5082e-01,0.0225406
1.5086e-01,0.0232156
1.5089e-01,0.0231781
1.5092e-01,0.023875
1.5095e-01,0.0239562
1.5098e-01,0.0237281
1.5102e-01,0.0242156
1.5105e-01,0.0237812
1.5108e-01,0.0232781
1.5111e-01,0.0232062
1.5114e-01,0.0232125
1.5118e-01,0.0231281
1.5121e-01,0.0237281
1.5124e-01,0.0230719
1.5127e-01,0.0231531
1.5130e-01,0.0226562
1.5134e-01,0.0236187
1.5137e-01,0.02315
1.5140e-01,0.0227125
1.5143e-01,0.0227594
1.5146e-01,0.0231969
1.5150e-01,0.02245
1.5153e-01,0.0225531
1.5156e-01,0.0227969
1.5159e-01,0.02325
1.5162e-01,0.0241406
1.5166e-01,0.0241
1.5169e-01,0.0241937
1.5172e-01,0.0236937
1.5175e-01,0.023175
1.5178e-01,0.023225
1.5182e-01,0.0229187
1.5185e-01,0.0228
1.5188e-01,0.0230906
1.5191e-01,0.0229437
1.5194e-01,0.0228
1.5198e-01,0.0230031
1.5201e-01,0.0229312
1.5204e-01,0.0229656
1.5207e-01,0.0231437
1.5210e-01,0.0235281
1.5214e-01,0.0232187
