Zeeman-effect/yellow_mag1.300_vert.csv

Model,MSO2024
Firmware Version,1.52

Point Format,Y
Horizontal Units,S
Horizontal Scale,0.01
Sample Interval,3.2e-05
Filter Frequency,2e+08
Record Length,3125
Gating,0.0% to 100.0%
Probe Attenuation,1
Vertical Units,V
Vertical Offset,0
Vertical Scale,0.02
Label,
TIME,CH1
1.2180e-01,0.0284312
1.2183e-01,0.0271969
1.2186e-01,0.0283437
1.2190e-01,0.0281406
1.2193e-01,0.0275875
1.2196e-01,0.0268187
1.2199e-01,0.0268625
1.2202e-01,0.0263719
1.2206e-01,0.0263969
1.2209e-01,0.0261281
1.2212e-01,0.0259437
1.2215e-01,0.0249844
1.2218e-01,0.0252312
1.2222e-01,0.02565
1.2225e-01,0.0261937
1.2228e-01,0.0257781
1.2231e-01,0.025925
1.2234e-01,0.0263375
1.2238e-01,0.0278094
1.2241e-01,0.0275844
1.2244e-01,0.0277094
1.2247e-01,0.0277344
1.2250e-01,0.02705
1.2254e-01,0.027075
1.2257e-01,0.0264562
1.2260e-01,0.0262687
1.2263e-01,0.0257469
1.2266e-01,0.0257875
1.2270e-01,0.0255844
1.2273e-01,0.0259219
1.2276e-01,0.0267687
1.2279e-01,0.0268969
1.2282e-01,0.0275656
1.2286e-01,0.0263531
1.2289e-01,0.02605
1.2292e-01,0.0251781
1.2295e-01,0.0248656
1.2298e-01,0.0251406
1.2302e-01,0.0254375
1.2305e-01,0.0257844
1.2308e-01,0.0261281
1.2311e-01,0.0260687
1.2314e-01,0.0249906
1.2318e-01,0.0249312
1.2321e-01,0.0251125
1.2324e-01,0.02545
1.2327e-01,0.0256875
1.2330e-01,0.0255844
1.2334e-01,0.0258687
1.2337e-01,0.0249406
1.2340e-01,0.0248562
1.2343e-01,0.0255312
1.2346e-01,0.0253937
1.2350e-01,0.0250437
1.2353e-01,0.0247969
1.2356e-01,0.0246281
1.2359e-01,0.0236906
1.2362e-01,0.0244187
1.2366e-01,0.0255344
1.2369e-01,0.0251812
1.2372e-01,0.02605
1.2375e-01,0.0254906
1.2378e-01,0.0253656
1.2382e-01,0.0254625
1.2385e-01,0.0269281
1.2388e-01,0.0267906
1.2391e-01,0.0258594
1.2394e-01,0.0273
1.2398e-01,0.0273187
1.2401e-01,0.0277937
1.2404e-01,0.0268531
1.2407e-01,0.0257187
1.2410e-01,0.0256469
1.2414e-01,0.0258125
1.2417e-01,0.0260312
1.2420e-01,0.0275344
1.2423e-01,0.0270937
1.2426e-01,0.0256219
1.2430e-01,0.0251562
1.2433e-01,0.0250344
1.2436e-01,0.0240406
1.2439e-01,0.0245562
1.2442e-01,0.0251
1.2446e-01,0.0264531
1.2449e-01,0.0267781
1.2452e-01,0.0276656
1.2455e-01,0.0277687
1.2458e-01,0.0287594
1.2462e-01,0.0277406
1.2465e-01,0.0270937
1.2468e-01,0.0271812
1.2471e-01,0.0269719
1.2474e-01,0.0269094
1.2478e-01,0.0259531
1.2481e-01,0.0262281
1.2484e-01,0.0266594
1.2487e-01,0.0260656
1.2490e-01,0.0271125
1.2494e-01,0.0259594
1.2497e-01,0.0262187
1.2500e-01,0.0257125
1.2503e-01,0.0260937
1.2506e-01,0.0263312
1.2510e-01,0.0267656
1.2513e-01,0.0269219
1.2516e-01,0.0256312
1.2519e-01,0.0265312
1.2522e-01,0.0270125
1.2526e-01,0.0290562
1.2529e-01,0.0297219
1.2532e-01,0.0301719
1.2535e-01,0.0302594
1.2538e-01,0.0286937
1.2542e-01,0.0266
1.2545e-01,0.0263844
1.2548e-01,0.0269094
1.2551e-01,0.0272219
1.2554e-01,0.0268687
1.2558e-01,0.02705
1.2561e-01,0.0280562
1.2564e-01,0.0303281
1.2567e-01,0.03015
1.2570e-01,0.028825
1.2574e-01,0.0275687
1.2577e-01,0.0278906
1.2580e-01,0.028375
1.2583e-01,0.0296719
1.2586e-01,0.0287219
1.2590e-01,0.0286937
1.2593e-01,0.0296719
1.2596e-01,0.0288469
1.2599e-01,0.0291281
1.2602e-01,0.0291937
1.2606e-01,0.0290406
1.2609e-01,0.0280594
1.2612e-01,0.0283937
1.2615e-01,0.0292719
1.2618e-01,0.0284625
1.2622e-01,0.027625
1.2625e-01,0.0266406
1.2628e-01,0.0277969
1.2631e-01,0.0298844
1.2634e-01,0.0311469
1.2638e-01,0.030025
1.2641e-01,0.0321531
1.2644e-01,0.0308031
1.2647e-01,0.0308906
1.2650e-01,0.0298812
1.2654e-01,0.0294031
1.2657e-01,0.0290469
1.2660e-01,0.0311844
1.2663e-01,0.0307187
1.2666e-01,0.0297281
1.2670e-01,0.0301062
1.2673e-01,0.0322156
1.2676e-01,0.0326
1.2679e-01,0.0336031
1.2682e-01,0.0326844
1.2686e-01,0.03095
1.2689e-01,0.0301937
1.2692e-01,0.0300937
1.2695e-01,0.0297344
1.2698e-01,0.0299094
1.2702e-01,0.0317937
1.2705e-01,0.0319656
1.2708e-01,0.0332531
1.2711e-01,0.0346844
1.2714e-01,0.0345094
1.2718e-01,0.0327219
1.2721e-01,0.0314125
1.2724e-01,0.0328687
1.2727e-01,0.0348156
1.2730e-01,0.0351437
1.2734e-01,0.0349406
1.2737e-01,0.0349625
1.2740e-01,0.0347969
1.2743e-01,0.0332437
1.2746e-01,0.0340594
1.2750e-01,0.0342562
1.2753e-01,0.0348531
1.2756e-01,0.0339656
1.2759e-01,0.034525
1.2762e-01,0.0333594
1.2766e-01,0.0342844
1.2769e-01,0.033325
1.2772e-01,0.0335531
1.2775e-01,0.0336375
1.2778e-01,0.0347844
1.2782e-01,0.0349531
1.2785e-01,0.0366719
1.2788e-01,0.0362969
1.2791e-01,0.0353406
1.2794e-01,0.0351594
1.2798e-01,0.0368531
1.2801e-01,0.0376094
1.2804e-01,0.0382562
1.2807e-01,0.0409469
1.2810e-01,0.0412437
1.2814e-01,0.0409594
1.2817e-01,0.0402875
1.2820e-01,0.039825
1.2823e-01,0.0400937
1.2826e-01,0.0390469
1.2830e-01,0.0416687
1.2833e-01,0.0408312
1.2836e-01,0.0416312
1.2839e-01,0.0425312
1.2842e-01,0.0423125
1.2846e-01,0.0428312
1.2849e-01,0.0436594
1.2852e-01,0.042675
1.2855e-01,0.0426687
1.2858e-01,0.04225
1.2862e-01,0.0432656
1.2865e-01,0.0446969
1.2868e-01,0.0448031
1.2871e-01,0.0471187
1.2874e-01,0.0496656
1.2878e-01,0.051
1.2881e-01,0.0511906
1.2884e-01,0.0498719
1.2887e-01,0.0487125
1.2890e-01,0.0487031
1.2894e-01,0.0494531
1.2897e-01,0.0477031
1.2900e-01,0.0471156
1.2903e-01,0.0455062
1.2906e-01,0.0452969
1.2910e-01,0.0455844
1.2913e-01,0.0440781
1.2916e-01,0.0455375
1.2919e-01,0.044575
1.2922e-01,0.044125
1.2926e-01,0.0429
1.2929e-01,0.0421594
1.2932e-01,0.0409812
1.2935e-01,0.0407656
1.2938e-01,0.0412312
1.2942e-01,0.0390219
1.2945e-01,0.0383812
1.2948e-01,0.0383375
1.2951e-01,0.03915
1.2954e-01,0.0388875
1.2958e-01,0.0378094
1.2961e-01,0.0344937
1.2964e-01,0.0349781
1.2967e-01,0.0341031
1.2970e-01,0.0331187
1.2974e-01,0.032875
1.2977e-01,0.0311969
1.2980e-01,0.0317531
1.2983e-01,0.0323375
1.2986e-01,0.0315531
1.2990e-01,0.0309937
1.2993e-01,0.0313469
1.2996e-01,0.0293625
1.2999e-01,0.0303656
1.3002e-01,0.02945
1.3006e-01,0.0289156
1.3009e-01,0.0276
1.3012e-01,0.0266
1.3015e-01,0.0269625
1.3018e-01,0.0262
1.3022e-01,0.0255406
1.3025e-01,0.0263812
1.3028e-01,0.0253562
1.3031e-01,0.0259687
1.3034e-01,0.0268906
1.3038e-01,0.0270312
1.3041e-01,0.0280656
1.3044e-01,0.0272812
1.3047e-01,0.0270375
1.3050e-01,0.0262844
1.3054e-01,0.0268594
1.3057e-01,0.0259719
1.3060e-01,0.0271375
1.3063e-01,0.0261437
1.3066e-01,0.0256406
1.3070e-01,0.0252187
1.3073e-01,0.0262219
1.3076e-01,0.0272062
1.3079e-01,0.0267062
1.3082e-01,0.0260969
1.3086e-01,0.0258187
1.3089e-01,0.0254625
1.3092e-01,0.0252875
1.3095e-01,0.0254562
1.3098e-01,0.0252562
1.3102e-01,0.0265844
1.3105e-01,0.0265406
1.3108e-01,0.027
1.3111e-01,0.0263687
1.3114e-01,0.0255687
1.3118e-01,0.0240312
1.3121e-01,0.024775
1.3124e-01,0.026625
1.3127e-01,0.0265844
1.3130e-01,0.0268
1.3134e-01,0.0261812
1.3137e-01,0.0267312
1.3140e-01,0.0264844
1.3143e-01,0.0262969
1.3146e-01,0.0254156
1.3150e-01,0.0248719
1.3153e-01,0.0259156
1.3156e-01,0.0255094
1.3159e-01,0.0264094
1.3162e-01,0.025975
1.3166e-01,0.0254562
1.3169e-01,0.0263
1.3172e-01,0.0265281
1.3175e-01,0.0271312
1.3178e-01,0.0266719
1.3182e-01,0.0269375
1.3185e-01,0.0266687
1.3188e-01,0.0271656
1.3191e-01,0.0271437
1.3194e-01,0.0275687
1.3198e-01,0.027075
1.3201e-01,0.0262781
1.3204e-01,0.0258344
1.3207e-01,0.0250656
1.3210e-01,0.0242937
1.3214e-01,0.0247125
1.3217e-01,0.0266031
1.3220e-01,0.0269812
1.3223e-01,0.0275156
1.3226e-01,0.0268969
1.3230e-01,0.0256781
1.3233e-01,0.02555
1.3236e-01,0.0262875
1.3239e-01,0.0273187
1.3242e-01,0.0278344
1.3246e-01,0.0270844
1.3249e-01,0.0272125
1.3252e-01,0.0259469
1.3255e-01,0.0261062
1.3258e-01,0.027175
1.3262e-01,0.0278469
1.3265e-01,0.0283656
1.3268e-01,0.0270562
1.3271e-01,0.02745
1.3274e-01,0.0289
1.3278e-01,0.029025
1.3281e-01,0.0286844
1.3284e-01,0.02905
1.3287e-01,0.0269875
1.3290e-01,0.0283
1.3294e-01,0.0289094
1.3297e-01,0.0279437
1.3300e-01,0.0271437
1.3303e-01,0.0261281
1.3306e-01,0.0273031
1.3310e-01,0.0280562
1.3313e-01,0.0288562
1.3316e-01,0.0284406
1.3319e-01,0.0288594
1.3322e-01,0.0282562
1.3326e-01,0.0287281
1.3329e-01,0.0290031
1.3332e-01,0.0306469
1.3335e-01,0.0312187
1.3338e-01,0.0307
1.3342e-01,0.0316656
1.3345e-01,0.0296187
1.3348e-01,0.02895
1.3351e-01,0.0282906
1.3354e-01,0.0285062
1.3358e-01,0.0287844
1.3361e-01,0.0283281
1.3364e-01,0.0283656
1.3367e-01,0.0298219
1.3370e-01,0.0290562
1.3374e-01,0.0285156
1.3377e-01,0.0289594
1.3380e-01,0.0298375
1.3383e-01,0.0314531
1.3386e-01,0.031
1.3390e-01,0.0305
1.3393e-01,0.0295625
1.3396e-01,0.0298156
1.3399e-01,0.0302219
1.3402e-01,0.0305375
1.3406e-01,0.0315375
1.3409e-01,0.0322812
1.3412e-01,0.031075
1.3415e-01,0.0323687
1.3418e-01,0.0322406
1.3422e-01,0.0329344
1.3425e-01,0.0347656
1.3428e-01,0.0345562
1.3431e-01,0.0342156
1.3434e-01,0.0351781
1.3438e-01,0.0353937
1.3441e-01,0.0341937
1.3444e-01,0.0339531
1.3447e-01,0.0335906
1.3450e-01,0.035075
1.3454e-01,0.0344781
1.3457e-01,0.0336062
1.3460e-01,0.033175
1.3463e-01,0.0322094
1.3466e-01,0.03355
1.3470e-01,0.0342031
1.3473e-01,0.0352437
1.3476e-01,0.0359844
1.3479e-01,0.0375312
1.3482e-01,0.0391906
1.3486e-01,0.0394344
1.3489e-01,0.03955
1.3492e-01,0.038725
1.3495e-01,0.0390437
1.3498e-01,0.0389219
1.3502e-01,0.0393906
1.3505e-01,0.0390781
1.3508e-01,0.0396906
1.3511e-01,0.0414906
1.3514e-01,0.0446375
1.3518e-01,0.0436719
1.3521e-01,0.0426687
1.3524e-01,0.0439781
1.3527e-01,0.0446937
1.3530e-01,0.045125
1.3534e-01,0.045075
1.3537e-01,0.0427375
1.3540e-01,0.0461125
1.3543e-01,0.0460469
1.3546e-01,0.0464781
1.3550e-01,0.046575
1.3553e-01,0.0449469
1.3556e-01,0.0457375
1.3559e-01,0.0465156
1.3562e-01,0.045475
1.3566e-01,0.0469812
1.3569e-01,0.0459187
1.3572e-01,0.047075
1.3575e-01,0.0462344
1.3578e-01,0.0448906
1.3582e-01,0.0422437
1.3585e-01,0.0432781
1.3588e-01,0.0458437
1.3591e-01,0.0427156
1.3594e-01,0.0408594
1.3598e-01,0.040425
1.3601e-01,0.0391219
1.3604e-01,0.0382375
1.3607e-01,0.0375562
1.3610e-01,0.037075
1.3614e-01,0.0356906
1.3617e-01,0.0349062
1.3620e-01,0.0349125
1.3623e-01,0.0350656
1.3626e-01,0.035225
1.3630e-01,0.0352969
1.3633e-01,0.0349594
1.3636e-01,0.0341781
1.3639e-01,0.0318562
1.3642e-01,0.0318594
1.3646e-01,0.0325187
1.3649e-01,0.0316
1.3652e-01,0.0312406
1.3655e-01,0.0300312
1.3658e-01,0.0280281
1.3662e-01,0.0297844
1.3665e-01,0.0289281
1.3668e-01,0.0276469
1.3671e-01,0.0277687
1.3674e-01,0.026925
1.3678e-01,0.0278406
1.3681e-01,0.0281156
1.3684e-01,0.0292406
1.3687e-01,0.0276906
1.3690e-01,0.0280906
1.3694e-01,0.0279156
1.3697e-01,0.0293437
1.3700e-01,0.0292531
1.3703e-01,0.029725
1.3706e-01,0.0303469
1.3710e-01,0.0296312
1.3713e-01,0.02985
1.3716e-01,0.0298094
1.3719e-01,0.0283281
1.3722e-01,0.0283375
1.3726e-01,0.0286187
1.3729e-01,0.0267625
1.3732e-01,0.0264594
1.3735e-01,0.0262
1.3738e-01,0.0269031
1.3742e-01,0.0263156
1.3745e-01,0.0263687
1.3748e-01,0.0268062
1.3751e-01,0.0259844
1.3754e-01,0.026275
1.3758e-01,0.027025
1.3761e-01,0.0267969
1.3764e-01,0.0270062
1.3767e-01,0.0270562
1.3770e-01,0.0270687
1.3774e-01,0.0264062
1.3777e-01,0.0262344
1.3780e-01,0.0268437
1.3783e-01,0.0269031
1.3786e-01,0.0263125
1.3790e-01,0.0262937
1.3793e-01,0.027225
1.3796e-01,0.0260531
1.3799e-01,0.025925
1.3802e-01,0.0264437
1.3806e-01,0.0270969
1.3809e-01,0.0267125
1.3812e-01,0.0274187
1.3815e-01,0.0265281
1.3818e-01,0.0260312
1.3822e-01,0.0251719
1.3825e-01,0.0261156
1.3828e-01,0.0276312
1.3831e-01,0.027425
1.3834e-01,0.0265719
1.3838e-01,0.0251969
1.3841e-01,0.0253844
1.3844e-01,0.0255437
1.3847e-01,0.0257969
1.3850e-01,0.0265312
1.3854e-01,0.0258687
1.3857e-01,0.0252
1.3860e-01,0.025675
1.3863e-01,0.0256469
1.3866e-01,0.0267281
1.3870e-01,0.0275219
1.3873e-01,0.0272312
1.3876e-01,0.0268437
1.3879e-01,0.0262344
1.3882e-01,0.0258187
1.3886e-01,0.0262281
1.3889e-01,0.0249937
1.3892e-01,0.0254281
1.3895e-01,0.0255625
1.3898e-01,0.0256031
1.3902e-01,0.0248281
1.3905e-01,0.0253875
1.3908e-01,0.0248906
1.3911e-01,0.0250375
1.3914e-01,0.0254687
1.3918e-01,0.0263
1.3921e-01,0.0255812
1.3924e-01,0.0258937
1.3927e-01,0.0256844
1.3930e-01,0.0263312
1.3934e-01,0.026725
1.3937e-01,0.0270312
1.3940e-01,0.0265406
1.3943e-01,0.0262469
1.3946e-01,0.0273062
1.3950e-01,0.0273844
1.3953e-01,0.0275187
1.3956e-01,0.0265219
1.3959e-01,0.0269844
1.3962e-01,0.0272594
1.3966e-01,0.0279906
1.3969e-01,0.0287312
1.3972e-01,0.0273969
1.3975e-01,0.0278125
1.3978e-01,0.0288062
1.3982e-01,0.0283406
1.3985e-01,0.0271156
1.3988e-01,0.0262906
1.3991e-01,0.0266187
1.3994e-01,0.0258312
1.3998e-01,0.0276406
1.4001e-01,0.0278969
1.4004e-01,0.0286687
1.4007e-01,0.02845
1.4010e-01,0.0297625
1.4014e-01,0.0294312
1.4017e-01,0.0292656
1.4020e-01,0.0288875
1.4023e-01,0.0285937
1.4026e-01,0.0291344
1.4030e-01,0.0277687
1.4033e-01,0.029575
1.4036e-01,0.0302656
1.4039e-01,0.0295781
1.4042e-01,0.0286594
1.4046e-01,0.029025
1.4049e-01,0.0290625
1.4052e-01,0.0300437
1.4055e-01,0.0303687
1.4058e-01,0.0312875
1.4062e-01,0.0301937
1.4065e-01,0.0318469
1.4068e-01,0.0308687
1.4071e-01,0.0299969
1.4074e-01,0.03035
1.4078e-01,0.03105
1.4081e-01,0.0324094
1.4084e-01,0.0325969
1.4087e-01,0.0329594
1.4090e-01,0.0347906
1.4094e-01,0.0344656
1.4097e-01,0.0331281
1.4100e-01,0.0336344
1.4103e-01,0.0330875
1.4106e-01,0.0322219
1.4110e-01,0.0323406
1.4113e-01,0.0312531
1.4116e-01,0.034175
1.4119e-01,0.0342844
1.4122e-01,0.0340125
1.4126e-01,0.0340312
1.4129e-01,0.035575
1.4132e-01,0.0351969
1.4135e-01,0.0354906
1.4138e-01,0.0353156
1.4142e-01,0.0350906
1.4145e-01,0.0352187
1.4148e-01,0.0372844
1.4151e-01,0.0399281
1.4154e-01,0.0401656
1.4158e-01,0.0381094
1.4161e-01,0.0388437
1.4164e-01,0.0400312
1.4167e-01,0.0429219
1.4170e-01,0.0415625
1.4174e-01,0.0419906
1.4177e-01,0.0433562
1.4180e-01,0.0448062
1.4183e-01,0.0451406
1.4186e-01,0.0454094
1.4190e-01,0.0457375
1.4193e-01,0.0449094
1.4196e-01,0.0439906
1.4199e-01,0.0448094
1.4202e-01,0.0422125
1.4206e-01,0.043675
1.4209e-01,0.0456812
1.4212e-01,0.0461844
1.4215e-01,0.0443469
1.4218e-01,0.0437094
1.4222e-01,0.0436656
1.4225e-01,0.0427312
1.4228e-01,0.0401906
1.4231e-01,0.0380531
1.4234e-01,0.0366781
1.4238e-01,0.0355937
1.4241e-01,0.0344531
1.4244e-01,0.0342687
1.4247e-01,0.0329937
1.4250e-01,0.0336219
1.4254e-01,0.0325125
1.4257e-01,0.0326812
1.4260e-01,0.0318406
1.4263e-01,0.0297594
1.4266e-01,0.0286281
1.4270e-01,0.0275375
1.4273e-01,0.0282375
1.4276e-01,0.0275312
1.4279e-01,0.0281406
1.4282e-01,0.0269719
1.4286e-01,0.0275125
1.4289e-01,0.0265937
1.4292e-01,0.0268031
1.4295e-01,0.0270406
1.4298e-01,0.0261219
1.4302e-01,0.0266906
1.4305e-01,0.02705
1.4308e-01,0.0259344
1.4311e-01,0.0257406
1.4314e-01,0.0257406
1.4318e-01,0.0255937
1.4321e-01,0.0248531
1.4324e-01,0.024125
1.4327e-01,0.0243594
1.4330e-01,0.0254281
1.4334e-01,0.0250375
1.4337e-01,0.0247437
1.4340e-01,0.0256312
1.4343e-01,0.02665
1.4346e-01,0.0257875
1.4350e-01,0.0249969
1.4353e-01,0.0263469
1.4356e-01,0.0263062
1.4359e-01,0.0267062
1.4362e-01,0.0259625
1.4366e-01,0.0268437
1.4369e-01,0.0274781
1.4372e-01,0.0264
1.4375e-01,0.0258656
1.4378e-01,0.0256625
1.4382e-01,0.0260562
1.4385e-01,0.0268875
1.4388e-01,0.0271781
1.4391e-01,0.0262781
1.4394e-01,0.0264625
1.4398e-01,0.0266719
1.4401e-01,0.0262625
1.4404e-01,0.0265312
1.4407e-01,0.0264187
1.4410e-01,0.0279937
1.4414e-01,0.0270406
1.4417e-01,0.0272062
1.4420e-01,0.0263656
1.4423e-01,0.0249625
1.4426e-01,0.0265719
1.4430e-01,0.0262687
1.4433e-01,0.0258906
1.4436e-01,0.0267812
1.4439e-01,0.0263906
1.4442e-01,0.0267531
1.4446e-01,0.0270406
1.4449e-01,0.0270094
1.4452e-01,0.0280281
1.4455e-01,0.0286469
1.4458e-01,0.0270844
1.4462e-01,0.0266094
1.4465e-01,0.0276375
1.4468e-01,0.0291594
1.4471e-01,0.0283437
1.4474e-01,0.0282219
1.4478e-01,0.0277437
1.4481e-01,0.0269
1.4484e-01,0.0283062
1.4487e-01,0.0291812
1.4490e-01,0.0283687
1.4494e-01,0.0281187
1.4497e-01,0.0264094
1.4500e-01,0.0280094
1.4503e-01,0.0270812
1.4506e-01,0.0271219
1.4510e-01,0.0261937
1.4513e-01,0.0269281
1.4516e-01,0.0269031
1.4519e-01,0.0283875
1.4522e-01,0.0282594
1.4526e-01,0.0284156
1.4529e-01,0.0283375
1.4532e-01,0.0288844
1.4535e-01,0.0287812
1.4538e-01,0.0284031
1.4542e-01,0.0290906
1.4545e-01,0.0285562
1.4548e-01,0.029425
1.4551e-01,0.0277531
1.4554e-01,0.0282094
1.4558e-01,0.0280406
1.4561e-01,0.0276219
1.4564e-01,0.0291344
1.4567e-01,0.0297687
1.4570e-01,0.0290219
1.4574e-01,0.0286469
1.4577e-01,0.0286031
1.4580e-01,0.0289062
1.4583e-01,0.0283625
1.4586e-01,0.02825
1.4590e-01,0.028425
1.4593e-01,0.0302312
1.4596e-01,0.028175
1.4599e-01,0.0286406
1.4602e-01,0.0286625
1.4606e-01,0.0300687
1.4609e-01,0.0286531
1.4612e-01,0.0306625
1.4615e-01,0.0307906
1.4618e-01,0.03025
1.4622e-01,0.0295937
1.4625e-01,0.0298687
1.4628e-01,0.030275
1.4631e-01,0.0301031
1.4634e-01,0.0308875
1.4638e-01,0.0312656
1.4641e-01,0.0323687
1.4644e-01,0.0315281
1.4647e-01,0.0309531
1.4650e-01,0.0312406
1.4654e-01,0.0311969
1.4657e-01,0.0321156
1.4660e-01,0.0324906
1.4663e-01,0.0329094
1.4666e-01,0.033525
1.4670e-01,0.0338687
1.4673e-01,0.0352281
1.4676e-01,0.0365594
1.4679e-01,0.0369687
1.4682e-01,0.0373719
1.4686e-01,0.0369594
1.4689e-01,0.037
1.4692e-01,0.0376
1.4695e-01,0.0386469
1.4698e-01,0.0380125
1.4702e-01,0.0384437
1.4705e-01,0.0391344
1.4708e-01,0.0385562
1.4711e-01,0.04005
1.4714e-01,0.0396125
1.4718e-01,0.0388687
1.4721e-01,0.0386562
1.4724e-01,0.0394687
1.4727e-01,0.042175
1.4730e-01,0.0435219
1.4734e-01,0.0432531
1.4737e-01,0.0424187
1.4740e-01,0.0431062
1.4743e-01,0.0427875
1.4746e-01,0.0432406
1.4750e-01,0.0450781
1.4753e-01,0.0448031
1.4756e-01,0.0443906
1.4759e-01,0.0441781
1.4762e-01,0.0453687
1.4766e-01,0.0431937
1.4769e-01,0.0419219
1.4772e-01,0.0416406
1.4775e-01,0.0405281
1.4778e-01,0.0410562
1.4782e-01,0.0413406
1.4785e-01,0.0406531
1.4788e-01,0.0379937
1.4791e-01,0.0364
1.4794e-01,0.03565
1.4798e-01,0.0328406
1.4801e-01,0.0324875
1.4804e-01,0.0329656
1.4807e-01,0.0320719
1.4810e-01,0.0303094
1.4814e-01,0.0295937
1.4817e-01,0.0303094
1.4820e-01,0.0291531
1.4823e-01,0.0290344
1.4826e-01,0.0283
1.4830e-01,0.0272781
1.4833e-01,0.0264437
1.4836e-01,0.0267781
1.4839e-01,0.026
1.4842e-01,0.0264437
1.4846e-01,0.0255719
1.4849e-01,0.026675
1.4852e-01,0.0260156
1.4855e-01,0.025775
1.4858e-01,0.0243562
1.4862e-01,0.0244562
1.4865e-01,0.0244906
1.4868e-01,0.0256719
1.4871e-01,0.0256531
1.4874e-01,0.0246906
1.4878e-01,0.0243969
1.4881e-01,0.0247719
1.4884e-01,0.0249812
1.4887e-01,0.0243719
1.4890e-01,0.0242187
1.4894e-01,0.0243312
1.4897e-01,0.0239469
1.4900e-01,0.0237437
1.4903e-01,0.0239875
1.4906e-01,0.0235844
1.4910e-01,0.0253781
1.4913e-01,0.0242781
1.4916e-01,0.02395
1.4919e-01,0.0236031
1.4922e-01,0.0237437
1.4926e-01,0.0257062
1.4929e-01,0.0247156
1.4932e-01,0.0247719
1.4935e-01,0.0243406
1.4938e-01,0.02465
1.4942e-01,0.024225
1.4945e-01,0.0239844
1.4948e-01,0.0241969
1.4951e-01,0.0243906
1.4954e-01,0.024875
1.4958e-01,0.02515
1.4961e-01,0.0243937
1.4964e-01,0.0236531
1.4967e-01,0.0239625
1.4970e-01,0.0242781
1.4974e-01,0.0243594
1.4977e-01,0.02345
1.4980e-01,0.0226469
1.4983e-01,0.0234
1.4986e-01,0.023975
1.4990e-01,0.0240344
1.4993e-01,0.0237312
1.4996e-01,0.0234969
1.4999e-01,0.0244156
1.5002e-01,0.0247219
1.5006e-01,0.0244812
1.5009e-01,0.0244969
1.5012e-01,0.0246344
1.5015e-01,0.0241125
1.5018e-01,0.0235281
1.5022e-01,0.0236437
1.5025e-01,0.0234062
1.5028e-01,0.0231312
1.5031e-01,0.0234812
1.5034e-01,0.0242969
1.5038e-01,0.0245187
1.5041e-01,0.0237406
1.5044e-01,0.0233531
1.5047e-01,0.0240344
1.5050e-01,0.0231375
1.5054e-01,0.0231781
1.5057e-01,0.0229625
1.5060e-01,0.0241
1.5063e-01,0.0246125
1.5066e-01,0.0256156
1.5070e-01,0.0258656
1.5073e-01,0.0256375
1.5076e-01,0.0248406
1.5079e-01,0.0256656
1.5082e-01,0.0257875
1.5086e-01,0.0250625
1.5089e-01,0.0250781
1.5092e-01,0.0251844
1.5095e-01,0.0255094
1.5098e-01,0.0252875
1.5102e-01,0.025925
1.5105e-01,0.0245875
1.5108e-01,0.0242406
1.5111e-01,0.0247062
1.5114e-01,0.0257281
1.5118e-01,0.0262219
1.5121e-01,0.0256625
1.5124e-01,0.0247781
1.5127e-01,0.0254937
1.5130e-01,0.0248812
1.5134e-01,0.0236937
1.5137e-01,0.0231906
1.5140e-01,0.0241687
1.5143e-01,0.0247969
1.5146e-01,0.0248812
1.5150e-01,0.0243406
1.5153e-01,0.0238437
1.5156e-01,0.0242469
1.5159e-01,0.024325
1.5162e-01,0.0237594
1.5166e-01,0.0234656
1.5169e-01,0.0241031
1.5172e-01,0.02505
1.5175e-01,0.0248937
1.5178e-01,0.0249
1.5182e-01,0.0243187
1.5185e-01,0.0244719
1.5188e-01,0.0237219
1.5191e-01,0.0239812
1.5194e-01,0.0238594
1.5198e-01,0.0238687
1.5201e-01,0.0235656
1.5204e-01,0.0236656
1.5207e-01,0.0231469
1.5210e-01,0.023125
1.5214e-01,0.0233531
1.5217e-01,0.0239625
