Zeeman-effect/yellow_mag1.300_noP.csv

Model,MSO2024
Firmware Version,1.52

Point Format,Y
Horizontal Units,S
Horizontal Scale,0.01
Sample Interval,3.2e-05
Filter Frequency,2e+08
Record Length,3125
Gating,0.0% to 100.0%
Probe Attenuation,1
Vertical Units,V
Vertical Offset,0
Vertical Scale,0.05
Label,
TIME,CH1
1.2180e-01,0.0531797
1.2183e-01,0.0543281
1.2186e-01,0.0517187
1.2190e-01,0.0508516
1.2193e-01,0.0521641
1.2196e-01,0.0531797
1.2199e-01,0.0514844
1.2202e-01,0.0495625
1.2206e-01,0.0498125
1.2209e-01,0.0471562
1.2212e-01,0.0456641
1.2215e-01,0.0438359
1.2218e-01,0.0441875
1.2222e-01,0.0455156
1.2225e-01,0.0465937
1.2228e-01,0.0473984
1.2231e-01,0.0447422
1.2234e-01,0.0486797
1.2238e-01,0.0479766
1.2241e-01,0.0458672
1.2244e-01,0.0452031
1.2247e-01,0.0459531
1.2250e-01,0.0454609
1.2254e-01,0.0459844
1.2257e-01,0.0474687
1.2260e-01,0.0498437
1.2263e-01,0.0480625
1.2266e-01,0.0475703
1.2270e-01,0.0470156
1.2273e-01,0.0452187
1.2276e-01,0.0464141
1.2279e-01,0.0455469
1.2282e-01,0.046125
1.2286e-01,0.0458984
1.2289e-01,0.0465469
1.2292e-01,0.0437109
1.2295e-01,0.0423281
1.2298e-01,0.0430703
1.2302e-01,0.0435
1.2305e-01,0.0426641
1.2308e-01,0.0412266
1.2311e-01,0.0417734
1.2314e-01,0.0439062
1.2318e-01,0.0437969
1.2321e-01,0.0427891
1.2324e-01,0.0421953
1.2327e-01,0.0422266
1.2330e-01,0.0418047
1.2334e-01,0.0433594
1.2337e-01,0.042125
1.2340e-01,0.0432656
1.2343e-01,0.0444844
1.2346e-01,0.0436953
1.2350e-01,0.0420937
1.2353e-01,0.0436406
1.2356e-01,0.0442969
1.2359e-01,0.0421016
1.2362e-01,0.0409453
1.2366e-01,0.0428203
1.2369e-01,0.0423047
1.2372e-01,0.0434766
1.2375e-01,0.0443828
1.2378e-01,0.0425391
1.2382e-01,0.044
1.2385e-01,0.0436797
1.2388e-01,0.0428594
1.2391e-01,0.0429375
1.2394e-01,0.0431016
1.2398e-01,0.0427812
1.2401e-01,0.0429922
1.2404e-01,0.043125
1.2407e-01,0.0432891
1.2410e-01,0.0465703
1.2414e-01,0.0474922
1.2417e-01,0.0464062
1.2420e-01,0.0462734
1.2423e-01,0.0441953
1.2426e-01,0.0437031
1.2430e-01,0.044375
1.2433e-01,0.0473906
1.2436e-01,0.0473281
1.2439e-01,0.0462734
1.2442e-01,0.0464297
1.2446e-01,0.0464453
1.2449e-01,0.0469844
1.2452e-01,0.0474141
1.2455e-01,0.0475234
1.2458e-01,0.0472812
1.2462e-01,0.0481406
1.2465e-01,0.0475625
1.2468e-01,0.0466641
1.2471e-01,0.0442812
1.2474e-01,0.0477109
1.2478e-01,0.0492031
1.2481e-01,0.0497109
1.2484e-01,0.0496172
1.2487e-01,0.0521328
1.2490e-01,0.0512812
1.2494e-01,0.0510781
1.2497e-01,0.0494375
1.2500e-01,0.0474062
1.2503e-01,0.0462109
1.2506e-01,0.0475937
1.2510e-01,0.0484141
1.2513e-01,0.0495
1.2516e-01,0.048375
1.2519e-01,0.0483516
1.2522e-01,0.0496094
1.2526e-01,0.0483125
1.2529e-01,0.049875
1.2532e-01,0.0507656
1.2535e-01,0.0519297
1.2538e-01,0.0539766
1.2542e-01,0.0536719
1.2545e-01,0.0565937
1.2548e-01,0.0558203
1.2551e-01,0.0529531
1.2554e-01,0.0569219
1.2558e-01,0.059125
1.2561e-01,0.055375
1.2564e-01,0.0541562
1.2567e-01,0.0536094
1.2570e-01,0.0560781
1.2574e-01,0.0561641
1.2577e-01,0.0536641
1.2580e-01,0.0531797
1.2583e-01,0.0547187
1.2586e-01,0.0565625
1.2590e-01,0.0576328
1.2593e-01,0.0597266
1.2596e-01,0.0633672
1.2599e-01,0.060875
1.2602e-01,0.0629531
1.2606e-01,0.0612422
1.2609e-01,0.0592187
1.2612e-01,0.063125
1.2615e-01,0.0614297
1.2618e-01,0.0618125
1.2622e-01,0.0650391
1.2625e-01,0.0669687
1.2628e-01,0.0653203
1.2631e-01,0.0690625
1.2634e-01,0.068875
1.2638e-01,0.0687031
1.2641e-01,0.0699609
1.2644e-01,0.0714609
1.2647e-01,0.0707656
1.2650e-01,0.0731719
1.2654e-01,0.0753672
1.2657e-01,0.0770156
1.2660e-01,0.0789219
1.2663e-01,0.0797187
1.2666e-01,0.0789297
1.2670e-01,0.0793516
1.2673e-01,0.0792734
1.2676e-01,0.0807031
1.2679e-01,0.0823281
1.2682e-01,0.0824687
1.2686e-01,0.0804844
1.2689e-01,0.0796094
1.2692e-01,0.0810703
1.2695e-01,0.0805312
1.2698e-01,0.0818672
1.2702e-01,0.0849609
1.2705e-01,0.0838281
1.2708e-01,0.0847812
1.2711e-01,0.0823203
1.2714e-01,0.0831328
1.2718e-01,0.0894766
1.2721e-01,0.0871016
1.2724e-01,0.08375
1.2727e-01,0.0860391
1.2730e-01,0.0887031
1.2734e-01,0.0833984
1.2737e-01,0.0811484
1.2740e-01,0.0794219
1.2743e-01,0.0793828
1.2746e-01,0.0794766
1.2750e-01,0.0794609
1.2753e-01,0.0795937
1.2756e-01,0.0798516
1.2759e-01,0.0816094
1.2762e-01,0.0801094
1.2766e-01,0.0795391
1.2769e-01,0.0779453
1.2772e-01,0.0730078
1.2775e-01,0.0732891
1.2778e-01,0.0689297
1.2782e-01,0.0659844
1.2785e-01,0.0665781
1.2788e-01,0.0638984
1.2791e-01,0.0633672
1.2794e-01,0.0628359
1.2798e-01,0.0624844
1.2801e-01,0.0612187
1.2804e-01,0.0623437
1.2807e-01,0.0576719
1.2810e-01,0.0572891
1.2814e-01,0.057875
1.2817e-01,0.0556953
1.2820e-01,0.0539219
1.2823e-01,0.0574922
1.2826e-01,0.0555547
1.2830e-01,0.0535234
1.2833e-01,0.0530234
1.2836e-01,0.0503047
1.2839e-01,0.0510391
1.2842e-01,0.0533047
1.2846e-01,0.0540625
1.2849e-01,0.0551016
1.2852e-01,0.0532812
1.2855e-01,0.0534609
1.2858e-01,0.0517422
1.2862e-01,0.0535937
1.2865e-01,0.055125
1.2868e-01,0.0540312
1.2871e-01,0.0536484
1.2874e-01,0.05475
1.2878e-01,0.0522109
1.2881e-01,0.0525078
1.2884e-01,0.0519844
1.2887e-01,0.0512109
1.2890e-01,0.0508047
1.2894e-01,0.0522656
1.2897e-01,0.0523437
1.2900e-01,0.0502734
1.2903e-01,0.0518516
1.2906e-01,0.0578906
1.2910e-01,0.0575469
1.2913e-01,0.0560234
1.2916e-01,0.0551406
1.2919e-01,0.0606562
1.2922e-01,0.0623359
1.2926e-01,0.0634531
1.2929e-01,0.0608437
1.2932e-01,0.0606094
1.2935e-01,0.0623906
1.2938e-01,0.0634141
1.2942e-01,0.0637031
1.2945e-01,0.0671953
1.2948e-01,0.0633672
1.2951e-01,0.063
1.2954e-01,0.0652891
1.2958e-01,0.0657812
1.2961e-01,0.0668203
1.2964e-01,0.0695312
1.2967e-01,0.0705469
1.2970e-01,0.0709375
1.2974e-01,0.0688047
1.2977e-01,0.0719141
1.2980e-01,0.0748047
1.2983e-01,0.0753203
1.2986e-01,0.0782109
1.2990e-01,0.0779922
1.2993e-01,0.0770859
1.2996e-01,0.0775469
1.2999e-01,0.0801172
1.3002e-01,0.0811641
1.3006e-01,0.0860547
1.3009e-01,0.087625
1.3012e-01,0.0884297
1.3015e-01,0.0906016
1.3018e-01,0.096875
1.3022e-01,0.100859
1.3025e-01,0.102758
1.3028e-01,0.103906
1.3031e-01,0.100055
1.3034e-01,0.0967812
1.3038e-01,0.0967266
1.3041e-01,0.102992
1.3044e-01,0.107727
1.3047e-01,0.110898
1.3050e-01,0.111945
1.3054e-01,0.115141
1.3057e-01,0.113367
1.3060e-01,0.10875
1.3063e-01,0.114703
1.3066e-01,0.117797
1.3070e-01,0.118742
1.3073e-01,0.123648
1.3076e-01,0.125828
1.3079e-01,0.124453
1.3082e-01,0.125344
1.3086e-01,0.126078
1.3089e-01,0.124617
1.3092e-01,0.125352
1.3095e-01,0.123234
1.3098e-01,0.125977
1.3102e-01,0.128156
1.3105e-01,0.128805
1.3108e-01,0.125711
1.3111e-01,0.122195
1.3114e-01,0.120484
1.3118e-01,0.118211
1.3121e-01,0.115273
1.3124e-01,0.112922
1.3127e-01,0.11057
1.3130e-01,0.106055
1.3134e-01,0.105758
1.3137e-01,0.106742
1.3140e-01,0.101555
1.3143e-01,0.0942031
1.3146e-01,0.0887031
1.3150e-01,0.087125
1.3153e-01,0.0815547
1.3156e-01,0.0790234
1.3159e-01,0.0777109
1.3162e-01,0.0816719
1.3166e-01,0.0804219
1.3169e-01,0.0763906
1.3172e-01,0.0727422
1.3175e-01,0.0674297
1.3178e-01,0.0641328
1.3182e-01,0.0632734
1.3185e-01,0.0630781
1.3188e-01,0.0628359
1.3191e-01,0.0645156
1.3194e-01,0.0610859
1.3198e-01,0.0597344
1.3201e-01,0.0560703
1.3204e-01,0.0553516
1.3207e-01,0.0565234
1.3210e-01,0.0545156
1.3214e-01,0.0540078
1.3217e-01,0.0521016
1.3220e-01,0.0529375
1.3223e-01,0.0560391
1.3226e-01,0.0552422
1.3230e-01,0.0545469
1.3233e-01,0.0508281
1.3236e-01,0.0515625
1.3239e-01,0.0519687
1.3242e-01,0.0534141
1.3246e-01,0.0530391
1.3249e-01,0.0529531
1.3252e-01,0.0517031
1.3255e-01,0.0520859
1.3258e-01,0.0507109
1.3262e-01,0.0521953
1.3265e-01,0.0557187
1.3268e-01,0.0544766
1.3271e-01,0.0523828
1.3274e-01,0.0552031
1.3278e-01,0.0540859
1.3281e-01,0.0574375
1.3284e-01,0.0568437
1.3287e-01,0.0557187
1.3290e-01,0.0547812
1.3294e-01,0.0530078
1.3297e-01,0.0530312
1.3300e-01,0.052
1.3303e-01,0.0575312
1.3306e-01,0.0582344
1.3310e-01,0.0548516
1.3313e-01,0.0536484
1.3316e-01,0.0543125
1.3319e-01,0.055875
1.3322e-01,0.0570703
1.3326e-01,0.0543906
1.3329e-01,0.0533281
1.3332e-01,0.0549844
1.3335e-01,0.0562344
1.3338e-01,0.0550469
1.3342e-01,0.0575234
1.3345e-01,0.0579766
1.3348e-01,0.0597187
1.3351e-01,0.0602422
1.3354e-01,0.0616719
1.3358e-01,0.0622891
1.3361e-01,0.0648906
1.3364e-01,0.0667734
1.3367e-01,0.0677109
1.3370e-01,0.0676406
1.3374e-01,0.0719766
1.3377e-01,0.071625
1.3380e-01,0.0719375
1.3383e-01,0.0707109
1.3386e-01,0.0696484
1.3390e-01,0.0735625
1.3393e-01,0.0764375
1.3396e-01,0.0758906
1.3399e-01,0.0734453
1.3402e-01,0.0693906
1.3406e-01,0.0736953
1.3409e-01,0.0774062
1.3412e-01,0.0813203
1.3415e-01,0.0818828
1.3418e-01,0.0831484
1.3422e-01,0.0791875
1.3425e-01,0.0805859
1.3428e-01,0.0810859
1.3431e-01,0.0815625
1.3434e-01,0.0806328
1.3438e-01,0.0816562
1.3441e-01,0.0832266
1.3444e-01,0.0782422
1.3447e-01,0.0785703
1.3450e-01,0.0757812
1.3454e-01,0.0746016
1.3457e-01,0.0703437
1.3460e-01,0.0648203
1.3463e-01,0.0630234
1.3466e-01,0.0596016
1.3470e-01,0.0599062
1.3473e-01,0.0584375
1.3476e-01,0.0577734
1.3479e-01,0.0544141
1.3482e-01,0.0527187
1.3486e-01,0.0527578
1.3489e-01,0.0509297
1.3492e-01,0.0518594
1.3495e-01,0.0518516
1.3498e-01,0.0534609
1.3502e-01,0.0497734
1.3505e-01,0.0479375
1.3508e-01,0.0471328
1.3511e-01,0.0465859
1.3514e-01,0.0432109
1.3518e-01,0.0440547
1.3521e-01,0.0437578
1.3524e-01,0.0423437
1.3527e-01,0.0422578
1.3530e-01,0.0439219
1.3534e-01,0.0424062
1.3537e-01,0.0441406
1.3540e-01,0.0423359
1.3543e-01,0.0417969
1.3546e-01,0.0427734
1.3550e-01,0.0424453
1.3553e-01,0.0413125
1.3556e-01,0.0416797
1.3559e-01,0.0441484
1.3562e-01,0.0455
1.3566e-01,0.0452812
1.3569e-01,0.0434375
1.3572e-01,0.0424219
1.3575e-01,0.0427031
1.3578e-01,0.0433828
1.3582e-01,0.0437187
1.3585e-01,0.0433125
1.3588e-01,0.0433437
1.3591e-01,0.0437187
1.3594e-01,0.0423984
1.3598e-01,0.0433984
1.3601e-01,0.0443594
1.3604e-01,0.0445391
1.3607e-01,0.0433047
1.3610e-01,0.0408984
1.3614e-01,0.0412187
1.3617e-01,0.0383984
1.3620e-01,0.0362578
1.3623e-01,0.0362969
1.3626e-01,0.0363203
1.3630e-01,0.0363047
1.3633e-01,0.0362578
1.3636e-01,0.0371406
1.3639e-01,0.0360391
1.3642e-01,0.0364687
1.3646e-01,0.0346016
1.3649e-01,0.03625
1.3652e-01,0.03775
1.3655e-01,0.0380391
1.3658e-01,0.0376016
1.3662e-01,0.0377812
1.3665e-01,0.0396016
1.3668e-01,0.0388672
1.3671e-01,0.0349375
1.3674e-01,0.0342578
1.3678e-01,0.0336562
1.3681e-01,0.0350703
1.3684e-01,0.0340469
1.3687e-01,0.0360156
1.3690e-01,0.0348594
1.3694e-01,0.0364375
1.3697e-01,0.0356094
1.3700e-01,0.0363437
1.3703e-01,0.0366016
1.3706e-01,0.0350078
1.3710e-01,0.0348437
1.3713e-01,0.0341562
1.3716e-01,0.0335469
1.3719e-01,0.0356641
1.3722e-01,0.0347266
1.3726e-01,0.0348281
1.3729e-01,0.0351719
1.3732e-01,0.0358125
1.3735e-01,0.03575
1.3738e-01,0.0361172
1.3742e-01,0.0359687
1.3745e-01,0.035625
1.3748e-01,0.034875
1.3751e-01,0.0344219
1.3754e-01,0.0344844
1.3758e-01,0.0338125
1.3761e-01,0.0338594
1.3764e-01,0.0366328
1.3767e-01,0.0364531
1.3770e-01,0.0343359
1.3774e-01,0.0352656
1.3777e-01,0.0374141
1.3780e-01,0.0378359
1.3783e-01,0.0381719
1.3786e-01,0.0370937
1.3790e-01,0.0359531
1.3793e-01,0.0362578
1.3796e-01,0.0355234
1.3799e-01,0.0377812
1.3802e-01,0.0379219
1.3806e-01,0.0378594
1.3809e-01,0.0368437
1.3812e-01,0.0378203
1.3815e-01,0.038625
1.3818e-01,0.0409062
1.3822e-01,0.0420547
1.3825e-01,0.0410781
1.3828e-01,0.0411406
1.3831e-01,0.0410703
1.3834e-01,0.0415234
1.3838e-01,0.0400781
1.3841e-01,0.0417734
1.3844e-01,0.0408437
1.3847e-01,0.0406953
1.3850e-01,0.0414219
1.3854e-01,0.0414531
1.3857e-01,0.0408203
1.3860e-01,0.0391953
1.3863e-01,0.039
1.3866e-01,0.0395
1.3870e-01,0.0412031
1.3873e-01,0.0413516
1.3876e-01,0.0433359
1.3879e-01,0.0461172
1.3882e-01,0.0431953
1.3886e-01,0.0421172
1.3889e-01,0.0416016
1.3892e-01,0.0418125
1.3895e-01,0.0431797
1.3898e-01,0.0447109
1.3902e-01,0.0452031
1.3905e-01,0.042625
1.3908e-01,0.0432891
1.3911e-01,0.0436406
1.3914e-01,0.0443516
1.3918e-01,0.0449844
1.3921e-01,0.0450781
1.3924e-01,0.0451641
1.3927e-01,0.0444844
1.3930e-01,0.0450312
1.3934e-01,0.0470547
1.3937e-01,0.0446016
1.3940e-01,0.0447422
1.3943e-01,0.0466406
1.3946e-01,0.0484531
1.3950e-01,0.0493047
1.3953e-01,0.0503594
1.3956e-01,0.0491484
1.3959e-01,0.0497891
1.3962e-01,0.0502969
1.3966e-01,0.0490703
1.3969e-01,0.0488672
1.3972e-01,0.0490547
1.3975e-01,0.0509531
1.3978e-01,0.0533672
1.3982e-01,0.0548516
1.3985e-01,0.0535234
1.3988e-01,0.0536172
1.3991e-01,0.053125
1.3994e-01,0.0557031
1.3998e-01,0.0589219
1.4001e-01,0.0625703
1.4004e-01,0.0633984
1.4007e-01,0.0656094
1.4010e-01,0.0656875
1.4014e-01,0.0680625
1.4017e-01,0.0711016
1.4020e-01,0.0718594
1.4023e-01,0.0693203
1.4026e-01,0.0701641
1.4030e-01,0.0739766
1.4033e-01,0.0719844
1.4036e-01,0.0747266
1.4039e-01,0.0773672
1.4042e-01,0.0779062
1.4046e-01,0.0814062
1.4049e-01,0.0803516
1.4052e-01,0.074375
1.4055e-01,0.0830937
1.4058e-01,0.0832187
1.4062e-01,0.083375
1.4065e-01,0.0812266
1.4068e-01,0.0801641
1.4071e-01,0.0797734
1.4074e-01,0.0772656
1.4078e-01,0.0792109
1.4081e-01,0.0798125
1.4084e-01,0.0791484
1.4087e-01,0.0752031
1.4090e-01,0.0710625
1.4094e-01,0.0702031
1.4097e-01,0.0654297
1.4100e-01,0.0690469
1.4103e-01,0.0710547
1.4106e-01,0.0667344
1.4110e-01,0.0625312
1.4113e-01,0.062
1.4116e-01,0.0603672
1.4119e-01,0.0593125
1.4122e-01,0.0566328
1.4126e-01,0.0551797
1.4129e-01,0.0529375
1.4132e-01,0.0521484
1.4135e-01,0.0507187
1.4138e-01,0.0509766
1.4142e-01,0.0483672
1.4145e-01,0.0493906
1.4148e-01,0.0478984
1.4151e-01,0.0470937
1.4154e-01,0.0476875
1.4158e-01,0.0479062
1.4161e-01,0.0466719
1.4164e-01,0.0462578
1.4167e-01,0.0468594
1.4170e-01,0.0473984
1.4174e-01,0.0488594
1.4177e-01,0.0477812
1.4180e-01,0.0483984
1.4183e-01,0.0471562
1.4186e-01,0.0490547
1.4190e-01,0.0490547
1.4193e-01,0.0484922
1.4196e-01,0.0482969
1.4199e-01,0.0493359
1.4202e-01,0.0535156
1.4206e-01,0.0567187
1.4209e-01,0.0541484
1.4212e-01,0.0528125
1.4215e-01,0.0510234
1.4218e-01,0.0535703
1.4222e-01,0.0543203
1.4225e-01,0.0552422
1.4228e-01,0.0570156
1.4231e-01,0.0585937
1.4234e-01,0.0593047
1.4238e-01,0.0570781
1.4241e-01,0.0590703
1.4244e-01,0.0618047
1.4247e-01,0.0642031
1.4250e-01,0.0645625
1.4254e-01,0.0657734
1.4257e-01,0.0632187
1.4260e-01,0.0649766
1.4263e-01,0.0674453
1.4266e-01,0.0675469
1.4270e-01,0.0691094
1.4273e-01,0.0720234
1.4276e-01,0.0739453
1.4279e-01,0.0797422
1.4282e-01,0.0811094
1.4286e-01,0.0890234
1.4289e-01,0.0893437
1.4292e-01,0.0901875
1.4295e-01,0.0909062
1.4298e-01,0.0968203
1.4302e-01,0.0965391
1.4305e-01,0.103781
1.4308e-01,0.103836
1.4311e-01,0.105336
1.4314e-01,0.107555
1.4318e-01,0.108812
1.4321e-01,0.111508
1.4324e-01,0.114172
1.4327e-01,0.114578
1.4330e-01,0.116711
1.4334e-01,0.118125
1.4337e-01,0.119727
1.4340e-01,0.120187
1.4343e-01,0.121828
1.4346e-01,0.119219
1.4350e-01,0.121883
1.4353e-01,0.121023
1.4356e-01,0.114023
1.4359e-01,0.109875
1.4362e-01,0.106133
1.4366e-01,0.102141
1.4369e-01,0.0946094
1.4372e-01,0.0899453
1.4375e-01,0.0892344
1.4378e-01,0.0875156
1.4382e-01,0.0859609
1.4385e-01,0.0810781
1.4388e-01,0.0782422
1.4391e-01,0.0753047
1.4394e-01,0.071125
1.4398e-01,0.07075
1.4401e-01,0.0675
1.4404e-01,0.0635781
1.4407e-01,0.0608984
1.4410e-01,0.0596875
1.4414e-01,0.0574297
1.4417e-01,0.055625
1.4420e-01,0.0541953
1.4423e-01,0.0502969
1.4426e-01,0.0526328
1.4430e-01,0.0492812
1.4433e-01,0.0485156
1.4436e-01,0.0495703
1.4439e-01,0.0487812
1.4442e-01,0.0470391
1.4446e-01,0.0473594
1.4449e-01,0.0462109
1.4452e-01,0.04575
1.4455e-01,0.0475234
1.4458e-01,0.0463359
1.4462e-01,0.0484219
1.4465e-01,0.0468984
1.4468e-01,0.0457422
1.4471e-01,0.0452266
1.4474e-01,0.0441484
1.4478e-01,0.0431016
1.4481e-01,0.0434141
1.4484e-01,0.0468516
1.4487e-01,0.0468594
1.4490e-01,0.0484922
1.4494e-01,0.0463203
1.4497e-01,0.0466016
1.4500e-01,0.0471875
1.4503e-01,0.0455937
1.4506e-01,0.0447891
1.4510e-01,0.0482969
1.4513e-01,0.0476875
1.4516e-01,0.0487266
1.4519e-01,0.0489219
1.4522e-01,0.0489297
1.4526e-01,0.0494062
1.4529e-01,0.0534219
1.4532e-01,0.0536406
1.4535e-01,0.0554609
1.4538e-01,0.0570234
1.4542e-01,0.0565469
1.4545e-01,0.0557031
1.4548e-01,0.0552187
1.4551e-01,0.0572422
1.4554e-01,0.0614297
1.4558e-01,0.0615078
1.4561e-01,0.0600312
1.4564e-01,0.0638281
1.4567e-01,0.0668125
1.4570e-01,0.0689766
1.4574e-01,0.0678437
1.4577e-01,0.0682109
1.4580e-01,0.0650625
1.4583e-01,0.0709766
1.4586e-01,0.0731562
1.4590e-01,0.0735937
1.4593e-01,0.0721562
1.4596e-01,0.0747031
1.4599e-01,0.0726094
1.4602e-01,0.0745
1.4606e-01,0.0738672
1.4609e-01,0.0735469
1.4612e-01,0.0762656
1.4615e-01,0.0789453
1.4618e-01,0.0760391
1.4622e-01,0.0799375
1.4625e-01,0.0829844
1.4628e-01,0.0816953
1.4631e-01,0.0804609
1.4634e-01,0.078625
1.4638e-01,0.0780625
1.4641e-01,0.0769844
1.4644e-01,0.0754375
1.4647e-01,0.0696172
1.4650e-01,0.0685312
1.4654e-01,0.0663516
1.4657e-01,0.0655234
1.4660e-01,0.0643281
1.4663e-01,0.0586719
1.4666e-01,0.0542812
1.4670e-01,0.0511328
1.4673e-01,0.0480625
1.4676e-01,0.0462422
1.4679e-01,0.0447031
1.4682e-01,0.0441406
1.4686e-01,0.0446797
1.4689e-01,0.0446953
1.4692e-01,0.0452266
1.4695e-01,0.0427422
1.4698e-01,0.039875
1.4702e-01,0.0399375
1.4705e-01,0.0392109
1.4708e-01,0.0380234
1.4711e-01,0.0380547
1.4714e-01,0.0380391
1.4718e-01,0.0375
1.4721e-01,0.036625
1.4724e-01,0.0372656
1.4727e-01,0.0379375
1.4730e-01,0.0388906
1.4734e-01,0.0373984
1.4737e-01,0.0370078
1.4740e-01,0.0393594
1.4743e-01,0.041625
1.4746e-01,0.0400234
1.4750e-01,0.0383516
1.4753e-01,0.0392891
1.4756e-01,0.0399375
1.4759e-01,0.0384062
1.4762e-01,0.0372109
1.4766e-01,0.036625
1.4769e-01,0.0387266
1.4772e-01,0.0376953
1.4775e-01,0.0383281
1.4778e-01,0.0383125
1.4782e-01,0.039125
1.4785e-01,0.0378672
1.4788e-01,0.0386328
1.4791e-01,0.0383047
1.4794e-01,0.0369062
1.4798e-01,0.0369453
1.4801e-01,0.0364844
1.4804e-01,0.0356719
1.4807e-01,0.0369141
1.4810e-01,0.0354297
1.4814e-01,0.0353906
1.4817e-01,0.0349297
1.4820e-01,0.0336875
1.4823e-01,0.0316641
1.4826e-01,0.0328437
1.4830e-01,0.0331641
1.4833e-01,0.0321406
1.4836e-01,0.0328906
1.4839e-01,0.0346641
1.4842e-01,0.0345156
1.4846e-01,0.034125
1.4849e-01,0.0321562
1.4852e-01,0.0319766
1.4855e-01,0.0334609
1.4858e-01,0.0339375
1.4862e-01,0.0334141
1.4865e-01,0.0335156
1.4868e-01,0.0327031
1.4871e-01,0.0312578
1.4874e-01,0.0325859
1.4878e-01,0.0318828
1.4881e-01,0.0328906
1.4884e-01,0.0326016
1.4887e-01,0.0346875
1.4890e-01,0.0318203
1.4894e-01,0.0315234
1.4897e-01,0.0300156
1.4900e-01,0.0301328
1.4903e-01,0.0328281
1.4906e-01,0.0324844
1.4910e-01,0.0310859
1.4913e-01,0.0309687
1.4916e-01,0.0308281
1.4919e-01,0.0303906
1.4922e-01,0.0297734
1.4926e-01,0.0301094
1.4929e-01,0.0315156
1.4932e-01,0.0310625
1.4935e-01,0.0309844
1.4938e-01,0.0296484
1.4942e-01,0.0298516
1.4945e-01,0.0312031
1.4948e-01,0.0312031
1.4951e-01,0.0321875
1.4954e-01,0.0321328
1.4958e-01,0.032125
1.4961e-01,0.0323594
1.4964e-01,0.0322422
1.4967e-01,0.0322969
1.4970e-01,0.0331797
1.4974e-01,0.0345937
1.4977e-01,0.0346328
1.4980e-01,0.0344922
1.4983e-01,0.0340078
1.4986e-01,0.0346406
1.4990e-01,0.0348594
1.4993e-01,0.0332422
1.4996e-01,0.0345469
1.4999e-01,0.0348984
1.5002e-01,0.0360078
1.5006e-01,0.0340391
1.5009e-01,0.0347187
1.5012e-01,0.03325
1.5015e-01,0.0323672
1.5018e-01,0.0317187
1.5022e-01,0.0318906
1.5025e-01,0.0313125
1.5028e-01,0.0309453
1.5031e-01,0.0306797
1.5034e-01,0.0314531
1.5038e-01,0.0301094
1.5041e-01,0.0291016
1.5044e-01,0.0292812
1.5047e-01,0.0289141
1.5050e-01,0.0281797
1.5054e-01,0.0293594
1.5057e-01,0.0295703
1.5060e-01,0.0292031
1.5063e-01,0.0295547
1.5066e-01,0.0304531
1.5070e-01,0.030125
1.5073e-01,0.0298437
1.5076e-01,0.0293437
1.5079e-01,0.0290625
1.5082e-01,0.0291641
1.5086e-01,0.0292891
1.5089e-01,0.0284375
1.5092e-01,0.0303203
1.5095e-01,0.0293437
1.5098e-01,0.0288047
1.5102e-01,0.0287734
1.5105e-01,0.0279531
1.5108e-01,0.0278516
1.5111e-01,0.0294219
1.5114e-01,0.0294531
1.5118e-01,0.0294844
1.5121e-01,0.0292812
1.5124e-01,0.0278672
1.5127e-01,0.0271406
1.5130e-01,0.0273594
1.5134e-01,0.0269531
1.5137e-01,0.0277422
1.5140e-01,0.0272891
1.5143e-01,0.0279141
1.5146e-01,0.0270312
1.5150e-01,0.0282734
1.5153e-01,0.0276328
1.5156e-01,0.0271406
1.5159e-01,0.0281016
1.5162e-01,0.0283906
1.5166e-01,0.0267109
1.5169e-01,0.0284062
1.5172e-01,0.0295547
1.5175e-01,0.0289844
1.5178e-01,0.0297344
1.5182e-01,0.0279453
1.5185e-01,0.0276094
1.5188e-01,0.0289141
1.5191e-01,0.0301562
1.5194e-01,0.029625
1.5198e-01,0.0290625
1.5201e-01,0.0294375
1.5204e-01,0.0283203
